<mxfile host="app.diagrams.net" modified="2023-12-31T02:05:33.328Z" agent="Mozilla/5.0 (Windows NT 10.0; Win64; x64) AppleWebKit/537.36 (KHTML, like Gecko) Chrome/120.0.0.0 Safari/537.36" etag="-vad2P1DI7fVFssBgxtl" version="22.1.16" type="device">
  <diagram name="Page-1" id="1MRiJQ-NhCKDZUdVcbZ2">
    <mxGraphModel dx="1789" dy="532" grid="0" gridSize="10" guides="1" tooltips="1" connect="1" arrows="1" fold="1" page="0" pageScale="1" pageWidth="1654" pageHeight="2336" math="0" shadow="0">
      <root>
        <mxCell id="0" />
        <mxCell id="1" parent="0" />
        <mxCell id="vSChdjSh_rkB65N2Or-r-33" value="Sinh Viên" style="whiteSpace=wrap;html=1;align=center;fontSize=16;" parent="1" vertex="1">
          <mxGeometry x="11" y="228" width="100" height="40" as="geometry" />
        </mxCell>
        <mxCell id="vSChdjSh_rkB65N2Or-r-35" value="Môn Học" style="whiteSpace=wrap;html=1;align=center;fontSize=16;" parent="1" vertex="1">
          <mxGeometry x="314" y="228" width="100" height="40" as="geometry" />
        </mxCell>
        <mxCell id="vSChdjSh_rkB65N2Or-r-47" style="rounded=0;orthogonalLoop=1;jettySize=auto;html=1;exitX=1;exitY=0.5;exitDx=0;exitDy=0;fontSize=12;startSize=8;endSize=8;endArrow=none;endFill=0;entryX=0;entryY=0.5;entryDx=0;entryDy=0;" parent="1" source="vSChdjSh_rkB65N2Or-r-36" target="vSChdjSh_rkB65N2Or-r-33" edge="1">
          <mxGeometry relative="1" as="geometry" />
        </mxCell>
        <mxCell id="vSChdjSh_rkB65N2Or-r-36" value="Tên" style="ellipse;whiteSpace=wrap;html=1;align=center;fontSize=16;" parent="1" vertex="1">
          <mxGeometry x="-157" y="258" width="100" height="40" as="geometry" />
        </mxCell>
        <mxCell id="vSChdjSh_rkB65N2Or-r-37" value="Mã Sinh Viên" style="ellipse;whiteSpace=wrap;html=1;align=center;fontStyle=4;fontSize=16;" parent="1" vertex="1">
          <mxGeometry x="-157" y="319" width="100" height="40" as="geometry" />
        </mxCell>
        <mxCell id="vSChdjSh_rkB65N2Or-r-38" value="Ngày Sinh" style="ellipse;whiteSpace=wrap;html=1;align=center;fontSize=16;" parent="1" vertex="1">
          <mxGeometry x="-157" y="198" width="100" height="40" as="geometry" />
        </mxCell>
        <mxCell id="vSChdjSh_rkB65N2Or-r-39" value="Địa Chỉ" style="ellipse;whiteSpace=wrap;html=1;align=center;fontSize=16;" parent="1" vertex="1">
          <mxGeometry x="-157" y="137" width="100" height="40" as="geometry" />
        </mxCell>
        <mxCell id="vSChdjSh_rkB65N2Or-r-55" style="edgeStyle=none;curved=1;rounded=0;orthogonalLoop=1;jettySize=auto;html=1;fontSize=12;startSize=8;endSize=8;endArrow=none;endFill=0;exitX=0;exitY=0.5;exitDx=0;exitDy=0;entryX=1;entryY=0.5;entryDx=0;entryDy=0;" parent="1" source="vSChdjSh_rkB65N2Or-r-41" target="vSChdjSh_rkB65N2Or-r-35" edge="1">
          <mxGeometry relative="1" as="geometry" />
        </mxCell>
        <mxCell id="vSChdjSh_rkB65N2Or-r-41" value="Mã Sinh Viên" style="ellipse;whiteSpace=wrap;html=1;align=center;fontStyle=4;fontSize=16;" parent="1" vertex="1">
          <mxGeometry x="465" y="162" width="100" height="40" as="geometry" />
        </mxCell>
        <mxCell id="vSChdjSh_rkB65N2Or-r-42" value="Số Tín chỉ" style="ellipse;whiteSpace=wrap;html=1;align=center;fontSize=16;" parent="1" vertex="1">
          <mxGeometry x="465" y="300.5" width="100" height="40" as="geometry" />
        </mxCell>
        <mxCell id="vSChdjSh_rkB65N2Or-r-54" style="edgeStyle=none;curved=1;rounded=0;orthogonalLoop=1;jettySize=auto;html=1;exitX=0;exitY=0.5;exitDx=0;exitDy=0;fontSize=12;startSize=8;endSize=8;endArrow=none;endFill=0;entryX=1;entryY=0.5;entryDx=0;entryDy=0;" parent="1" source="vSChdjSh_rkB65N2Or-r-43" target="vSChdjSh_rkB65N2Or-r-35" edge="1">
          <mxGeometry relative="1" as="geometry" />
        </mxCell>
        <mxCell id="vSChdjSh_rkB65N2Or-r-43" value="Tên Môn Học" style="ellipse;whiteSpace=wrap;html=1;align=center;fontSize=16;" parent="1" vertex="1">
          <mxGeometry x="465" y="231" width="100" height="40" as="geometry" />
        </mxCell>
        <mxCell id="vSChdjSh_rkB65N2Or-r-44" value="Học" style="shape=rhombus;perimeter=rhombusPerimeter;whiteSpace=wrap;html=1;align=center;fontSize=16;" parent="1" vertex="1">
          <mxGeometry x="156" y="218" width="120" height="60" as="geometry" />
        </mxCell>
        <mxCell id="vSChdjSh_rkB65N2Or-r-45" value="Điểm" style="ellipse;whiteSpace=wrap;html=1;align=center;fontSize=16;" parent="1" vertex="1">
          <mxGeometry x="142" y="373" width="100" height="40" as="geometry" />
        </mxCell>
        <mxCell id="vSChdjSh_rkB65N2Or-r-46" value="Năm học" style="ellipse;whiteSpace=wrap;html=1;align=center;fontSize=16;" parent="1" vertex="1">
          <mxGeometry x="233" y="329" width="100" height="40" as="geometry" />
        </mxCell>
        <mxCell id="vSChdjSh_rkB65N2Or-r-48" style="rounded=0;orthogonalLoop=1;jettySize=auto;html=1;exitX=1;exitY=0.5;exitDx=0;exitDy=0;fontSize=12;startSize=8;endSize=8;endArrow=none;endFill=0;entryX=0;entryY=0.5;entryDx=0;entryDy=0;" parent="1" source="vSChdjSh_rkB65N2Or-r-38" target="vSChdjSh_rkB65N2Or-r-33" edge="1">
          <mxGeometry relative="1" as="geometry">
            <mxPoint x="-48" y="279" as="sourcePoint" />
            <mxPoint x="50" y="283" as="targetPoint" />
          </mxGeometry>
        </mxCell>
        <mxCell id="vSChdjSh_rkB65N2Or-r-50" style="rounded=0;orthogonalLoop=1;jettySize=auto;html=1;exitX=0.5;exitY=1;exitDx=0;exitDy=0;fontSize=12;startSize=8;endSize=8;endArrow=none;endFill=0;" parent="1" source="vSChdjSh_rkB65N2Or-r-44" target="vSChdjSh_rkB65N2Or-r-46" edge="1">
          <mxGeometry relative="1" as="geometry">
            <mxPoint x="213" y="334" as="sourcePoint" />
            <mxPoint x="326" y="441" as="targetPoint" />
          </mxGeometry>
        </mxCell>
        <mxCell id="vSChdjSh_rkB65N2Or-r-51" style="rounded=0;orthogonalLoop=1;jettySize=auto;html=1;fontSize=12;startSize=8;endSize=8;endArrow=none;endFill=0;exitX=0.5;exitY=1;exitDx=0;exitDy=0;" parent="1" source="vSChdjSh_rkB65N2Or-r-44" target="vSChdjSh_rkB65N2Or-r-45" edge="1">
          <mxGeometry relative="1" as="geometry">
            <mxPoint x="-43" y="188" as="sourcePoint" />
            <mxPoint x="70" y="295" as="targetPoint" />
          </mxGeometry>
        </mxCell>
        <mxCell id="vSChdjSh_rkB65N2Or-r-52" style="rounded=0;orthogonalLoop=1;jettySize=auto;html=1;exitX=0;exitY=0.5;exitDx=0;exitDy=0;fontSize=12;startSize=8;endSize=8;endArrow=none;endFill=0;entryX=1;entryY=0.5;entryDx=0;entryDy=0;" parent="1" source="vSChdjSh_rkB65N2Or-r-33" target="vSChdjSh_rkB65N2Or-r-37" edge="1">
          <mxGeometry relative="1" as="geometry">
            <mxPoint x="-33" y="198" as="sourcePoint" />
            <mxPoint x="80" y="305" as="targetPoint" />
          </mxGeometry>
        </mxCell>
        <mxCell id="vSChdjSh_rkB65N2Or-r-53" style="rounded=0;orthogonalLoop=1;jettySize=auto;html=1;exitX=0;exitY=0.5;exitDx=0;exitDy=0;fontSize=12;startSize=8;endSize=8;endArrow=none;endFill=0;entryX=1;entryY=0.5;entryDx=0;entryDy=0;" parent="1" source="vSChdjSh_rkB65N2Or-r-42" target="vSChdjSh_rkB65N2Or-r-35" edge="1">
          <mxGeometry relative="1" as="geometry">
            <mxPoint x="50" y="295" as="sourcePoint" />
            <mxPoint x="-54" y="370" as="targetPoint" />
          </mxGeometry>
        </mxCell>
        <mxCell id="vSChdjSh_rkB65N2Or-r-59" value="" style="fontSize=12;html=1;endArrow=ERzeroToMany;endFill=1;rounded=0;startSize=8;endSize=8;entryX=0;entryY=0.5;entryDx=0;entryDy=0;exitX=1;exitY=0.5;exitDx=0;exitDy=0;" parent="1" source="vSChdjSh_rkB65N2Or-r-44" target="vSChdjSh_rkB65N2Or-r-35" edge="1">
          <mxGeometry width="100" height="100" relative="1" as="geometry">
            <mxPoint x="148" y="366" as="sourcePoint" />
            <mxPoint x="248" y="266" as="targetPoint" />
          </mxGeometry>
        </mxCell>
        <mxCell id="vSChdjSh_rkB65N2Or-r-60" value="" style="fontSize=12;html=1;endArrow=ERzeroToMany;endFill=1;rounded=0;startSize=8;endSize=8;exitX=0;exitY=0.5;exitDx=0;exitDy=0;entryX=1;entryY=0.5;entryDx=0;entryDy=0;" parent="1" source="vSChdjSh_rkB65N2Or-r-44" target="vSChdjSh_rkB65N2Or-r-33" edge="1">
          <mxGeometry width="100" height="100" relative="1" as="geometry">
            <mxPoint x="273" y="364" as="sourcePoint" />
            <mxPoint x="145" y="200" as="targetPoint" />
          </mxGeometry>
        </mxCell>
        <mxCell id="vSChdjSh_rkB65N2Or-r-61" style="rounded=0;orthogonalLoop=1;jettySize=auto;html=1;exitX=1;exitY=0.5;exitDx=0;exitDy=0;fontSize=12;startSize=8;endSize=8;endArrow=none;endFill=0;entryX=0;entryY=0.5;entryDx=0;entryDy=0;" parent="1" source="vSChdjSh_rkB65N2Or-r-39" target="vSChdjSh_rkB65N2Or-r-33" edge="1">
          <mxGeometry relative="1" as="geometry">
            <mxPoint x="-63" y="168" as="sourcePoint" />
            <mxPoint x="33" y="291" as="targetPoint" />
          </mxGeometry>
        </mxCell>
        <mxCell id="vSChdjSh_rkB65N2Or-r-62" value="Thực thể mạnh" style="whiteSpace=wrap;html=1;align=center;fontSize=16;" parent="1" vertex="1">
          <mxGeometry x="-114" y="436" width="135" height="40" as="geometry" />
        </mxCell>
        <mxCell id="vSChdjSh_rkB65N2Or-r-64" value="Thực thể yếu" style="shape=ext;margin=3;double=1;whiteSpace=wrap;html=1;align=center;fontSize=16;" parent="1" vertex="1">
          <mxGeometry x="-114" y="504" width="135" height="40" as="geometry" />
        </mxCell>
        <mxCell id="vSChdjSh_rkB65N2Or-r-65" value="Sinh Viên" style="whiteSpace=wrap;html=1;align=center;fontSize=16;" parent="1" vertex="1">
          <mxGeometry x="28" y="436" width="135" height="40" as="geometry" />
        </mxCell>
        <mxCell id="vSChdjSh_rkB65N2Or-r-66" value="Môn học" style="whiteSpace=wrap;html=1;align=center;fontSize=16;" parent="1" vertex="1">
          <mxGeometry x="171" y="436" width="135" height="40" as="geometry" />
        </mxCell>
        <mxCell id="vSChdjSh_rkB65N2Or-r-67" value="Hóa Đơn" style="shape=ext;margin=3;double=1;whiteSpace=wrap;html=1;align=center;fontSize=16;" parent="1" vertex="1">
          <mxGeometry x="28" y="504" width="135" height="40" as="geometry" />
        </mxCell>
        <mxCell id="vSChdjSh_rkB65N2Or-r-68" value="Điểm" style="shape=ext;margin=3;double=1;whiteSpace=wrap;html=1;align=center;fontSize=16;" parent="1" vertex="1">
          <mxGeometry x="168" y="504" width="135" height="40" as="geometry" />
        </mxCell>
        <mxCell id="vSChdjSh_rkB65N2Or-r-90" style="edgeStyle=none;curved=1;rounded=0;orthogonalLoop=1;jettySize=auto;html=1;exitX=0.5;exitY=1;exitDx=0;exitDy=0;fontSize=12;startSize=8;endSize=8;endArrow=none;endFill=0;" parent="1" source="vSChdjSh_rkB65N2Or-r-69" target="vSChdjSh_rkB65N2Or-r-82" edge="1">
          <mxGeometry relative="1" as="geometry" />
        </mxCell>
        <mxCell id="vSChdjSh_rkB65N2Or-r-91" style="edgeStyle=none;curved=1;rounded=0;orthogonalLoop=1;jettySize=auto;html=1;exitX=0.5;exitY=1;exitDx=0;exitDy=0;fontSize=12;startSize=8;endSize=8;endArrow=none;endFill=0;" parent="1" source="vSChdjSh_rkB65N2Or-r-69" target="vSChdjSh_rkB65N2Or-r-81" edge="1">
          <mxGeometry relative="1" as="geometry" />
        </mxCell>
        <mxCell id="vSChdjSh_rkB65N2Or-r-69" value="Sinh Viên" style="whiteSpace=wrap;html=1;align=center;fontSize=16;" parent="1" vertex="1">
          <mxGeometry x="35" y="761" width="100" height="40" as="geometry" />
        </mxCell>
        <mxCell id="vSChdjSh_rkB65N2Or-r-70" style="rounded=0;orthogonalLoop=1;jettySize=auto;html=1;exitX=1;exitY=0.5;exitDx=0;exitDy=0;fontSize=12;startSize=8;endSize=8;endArrow=none;endFill=0;entryX=0;entryY=0.5;entryDx=0;entryDy=0;" parent="1" source="vSChdjSh_rkB65N2Or-r-71" target="vSChdjSh_rkB65N2Or-r-69" edge="1">
          <mxGeometry relative="1" as="geometry" />
        </mxCell>
        <mxCell id="vSChdjSh_rkB65N2Or-r-71" value="Tên" style="ellipse;whiteSpace=wrap;html=1;align=center;fontSize=16;" parent="1" vertex="1">
          <mxGeometry x="-118" y="725" width="100" height="40" as="geometry" />
        </mxCell>
        <mxCell id="vSChdjSh_rkB65N2Or-r-72" value="Mã Sinh Viên" style="ellipse;whiteSpace=wrap;html=1;align=center;fontStyle=4;fontSize=16;" parent="1" vertex="1">
          <mxGeometry x="-111" y="783" width="100" height="40" as="geometry" />
        </mxCell>
        <mxCell id="vSChdjSh_rkB65N2Or-r-73" value="Ngày Sinh" style="ellipse;whiteSpace=wrap;html=1;align=center;fontSize=16;" parent="1" vertex="1">
          <mxGeometry x="168" y="725" width="100" height="40" as="geometry" />
        </mxCell>
        <mxCell id="vSChdjSh_rkB65N2Or-r-75" style="rounded=0;orthogonalLoop=1;jettySize=auto;html=1;exitX=0.019;exitY=0.65;exitDx=0;exitDy=0;fontSize=12;startSize=8;endSize=8;endArrow=none;endFill=0;entryX=1;entryY=0.5;entryDx=0;entryDy=0;exitPerimeter=0;" parent="1" source="vSChdjSh_rkB65N2Or-r-73" target="vSChdjSh_rkB65N2Or-r-69" edge="1">
          <mxGeometry relative="1" as="geometry">
            <mxPoint x="-24" y="812" as="sourcePoint" />
            <mxPoint x="74" y="816" as="targetPoint" />
          </mxGeometry>
        </mxCell>
        <mxCell id="vSChdjSh_rkB65N2Or-r-76" style="rounded=0;orthogonalLoop=1;jettySize=auto;html=1;exitX=0;exitY=0.5;exitDx=0;exitDy=0;fontSize=12;startSize=8;endSize=8;endArrow=none;endFill=0;entryX=1;entryY=0.5;entryDx=0;entryDy=0;" parent="1" source="vSChdjSh_rkB65N2Or-r-69" target="vSChdjSh_rkB65N2Or-r-72" edge="1">
          <mxGeometry relative="1" as="geometry">
            <mxPoint x="-9" y="731" as="sourcePoint" />
            <mxPoint x="104" y="838" as="targetPoint" />
          </mxGeometry>
        </mxCell>
        <mxCell id="vSChdjSh_rkB65N2Or-r-77" style="rounded=0;orthogonalLoop=1;jettySize=auto;html=1;fontSize=12;startSize=8;endSize=8;endArrow=none;endFill=0;entryX=0.5;entryY=0;entryDx=0;entryDy=0;exitX=0.5;exitY=1;exitDx=0;exitDy=0;" parent="1" source="vSChdjSh_rkB65N2Or-r-84" target="vSChdjSh_rkB65N2Or-r-69" edge="1">
          <mxGeometry relative="1" as="geometry">
            <mxPoint x="82.9899049489635" y="722.9960799690639" as="sourcePoint" />
            <mxPoint x="57" y="824" as="targetPoint" />
          </mxGeometry>
        </mxCell>
        <mxCell id="vSChdjSh_rkB65N2Or-r-78" value="Số nhà" style="ellipse;whiteSpace=wrap;html=1;align=center;fontSize=16;" parent="1" vertex="1">
          <mxGeometry x="-76" y="638" width="100" height="40" as="geometry" />
        </mxCell>
        <mxCell id="vSChdjSh_rkB65N2Or-r-79" value="Đường" style="ellipse;whiteSpace=wrap;html=1;align=center;fontSize=16;" parent="1" vertex="1">
          <mxGeometry x="35" y="623" width="100" height="40" as="geometry" />
        </mxCell>
        <mxCell id="vSChdjSh_rkB65N2Or-r-80" value="Thành phố" style="ellipse;whiteSpace=wrap;html=1;align=center;fontSize=16;" parent="1" vertex="1">
          <mxGeometry x="140" y="640" width="100" height="40" as="geometry" />
        </mxCell>
        <mxCell id="vSChdjSh_rkB65N2Or-r-81" value="Cân Nặng" style="ellipse;whiteSpace=wrap;html=1;align=center;fontSize=16;" parent="1" vertex="1">
          <mxGeometry x="104" y="845" width="100" height="40" as="geometry" />
        </mxCell>
        <mxCell id="vSChdjSh_rkB65N2Or-r-82" value="Sở Thích" style="ellipse;shape=doubleEllipse;margin=3;whiteSpace=wrap;html=1;align=center;fontSize=16;" parent="1" vertex="1">
          <mxGeometry x="-22" y="845" width="100" height="40" as="geometry" />
        </mxCell>
        <mxCell id="vSChdjSh_rkB65N2Or-r-85" style="edgeStyle=none;curved=1;rounded=0;orthogonalLoop=1;jettySize=auto;html=1;exitX=0;exitY=0.5;exitDx=0;exitDy=0;fontSize=12;startSize=8;endSize=8;endArrow=none;endFill=0;entryX=1;entryY=0.5;entryDx=0;entryDy=0;" parent="1" source="vSChdjSh_rkB65N2Or-r-83" target="vSChdjSh_rkB65N2Or-r-69" edge="1">
          <mxGeometry relative="1" as="geometry" />
        </mxCell>
        <mxCell id="vSChdjSh_rkB65N2Or-r-86" style="edgeStyle=none;curved=1;rounded=0;orthogonalLoop=1;jettySize=auto;html=1;exitX=0.5;exitY=0;exitDx=0;exitDy=0;fontSize=12;startSize=8;endSize=8;" parent="1" source="vSChdjSh_rkB65N2Or-r-83" target="vSChdjSh_rkB65N2Or-r-73" edge="1">
          <mxGeometry relative="1" as="geometry" />
        </mxCell>
        <mxCell id="vSChdjSh_rkB65N2Or-r-83" value="Tuổi" style="ellipse;whiteSpace=wrap;html=1;align=center;dashed=1;fontSize=16;" parent="1" vertex="1">
          <mxGeometry x="171" y="790" width="100" height="40" as="geometry" />
        </mxCell>
        <mxCell id="vSChdjSh_rkB65N2Or-r-87" style="edgeStyle=none;curved=1;rounded=0;orthogonalLoop=1;jettySize=auto;html=1;exitX=0;exitY=0;exitDx=0;exitDy=0;entryX=1;entryY=1;entryDx=0;entryDy=0;fontSize=12;startSize=8;endSize=8;endArrow=none;endFill=0;" parent="1" source="vSChdjSh_rkB65N2Or-r-84" target="vSChdjSh_rkB65N2Or-r-78" edge="1">
          <mxGeometry relative="1" as="geometry" />
        </mxCell>
        <mxCell id="vSChdjSh_rkB65N2Or-r-84" value="Địa Chỉ" style="ellipse;whiteSpace=wrap;html=1;align=center;dashed=1;fontSize=16;" parent="1" vertex="1">
          <mxGeometry x="35" y="698" width="100" height="40" as="geometry" />
        </mxCell>
        <mxCell id="vSChdjSh_rkB65N2Or-r-88" style="edgeStyle=none;curved=1;rounded=0;orthogonalLoop=1;jettySize=auto;html=1;exitX=0.5;exitY=0;exitDx=0;exitDy=0;fontSize=12;startSize=8;endSize=8;endArrow=none;endFill=0;" parent="1" source="vSChdjSh_rkB65N2Or-r-84" target="vSChdjSh_rkB65N2Or-r-79" edge="1">
          <mxGeometry relative="1" as="geometry">
            <mxPoint x="57" y="714" as="sourcePoint" />
            <mxPoint x="8" y="684" as="targetPoint" />
          </mxGeometry>
        </mxCell>
        <mxCell id="vSChdjSh_rkB65N2Or-r-89" style="edgeStyle=none;curved=1;rounded=0;orthogonalLoop=1;jettySize=auto;html=1;exitX=1;exitY=0;exitDx=0;exitDy=0;fontSize=12;startSize=8;endSize=8;endArrow=none;endFill=0;" parent="1" source="vSChdjSh_rkB65N2Or-r-84" target="vSChdjSh_rkB65N2Or-r-80" edge="1">
          <mxGeometry relative="1" as="geometry">
            <mxPoint x="67" y="724" as="sourcePoint" />
            <mxPoint x="18" y="694" as="targetPoint" />
          </mxGeometry>
        </mxCell>
        <mxCell id="vSChdjSh_rkB65N2Or-r-92" value="Key attribute" style="ellipse;whiteSpace=wrap;html=1;align=center;fontStyle=4;fontSize=16;" parent="1" vertex="1">
          <mxGeometry x="-149.7" y="1089.001095890411" width="177.39632545931758" height="70.95890410958904" as="geometry" />
        </mxCell>
        <mxCell id="vSChdjSh_rkB65N2Or-r-93" value="Simple attribute" style="ellipse;whiteSpace=wrap;html=1;align=center;fontSize=16;" parent="1" vertex="1">
          <mxGeometry x="88" y="992" width="177.39632545931758" height="70.95890410958904" as="geometry" />
        </mxCell>
        <mxCell id="vSChdjSh_rkB65N2Or-r-94" value="Multiple-value attribute" style="ellipse;shape=doubleEllipse;margin=3;whiteSpace=wrap;html=1;align=center;fontSize=16;" parent="1" vertex="1">
          <mxGeometry x="-158" y="992" width="177.39632545931758" height="70.95890410958904" as="geometry" />
        </mxCell>
        <mxCell id="vSChdjSh_rkB65N2Or-r-95" value="Composite attribute" style="ellipse;whiteSpace=wrap;html=1;align=center;dashed=1;fontSize=16;" parent="1" vertex="1">
          <mxGeometry x="333.00367454068237" y="992" width="177.39632545931758" height="70.95890410958904" as="geometry" />
        </mxCell>
        <mxCell id="vSChdjSh_rkB65N2Or-r-104" value="Single-value attribute" style="ellipse;whiteSpace=wrap;html=1;align=center;fontSize=16;" parent="1" vertex="1">
          <mxGeometry x="90" y="1087.001095890411" width="177.39632545931758" height="70.95890410958904" as="geometry" />
        </mxCell>
        <mxCell id="vSChdjSh_rkB65N2Or-r-105" value="Derived attribute" style="ellipse;whiteSpace=wrap;html=1;align=center;dashed=1;fontSize=16;" parent="1" vertex="1">
          <mxGeometry x="330.00367454068237" y="1087.001095890411" width="177.39632545931758" height="70.95890410958904" as="geometry" />
        </mxCell>
        <mxCell id="pqIIrUzcT10Te7JTkzrq-3" style="edgeStyle=none;curved=1;rounded=0;orthogonalLoop=1;jettySize=auto;html=1;exitX=1;exitY=0.5;exitDx=0;exitDy=0;fontSize=12;startSize=8;endSize=8;startArrow=ERmandOne;startFill=0;endArrow=ERmandOne;endFill=0;" parent="1" source="pqIIrUzcT10Te7JTkzrq-1" target="pqIIrUzcT10Te7JTkzrq-2" edge="1">
          <mxGeometry relative="1" as="geometry" />
        </mxCell>
        <mxCell id="pqIIrUzcT10Te7JTkzrq-1" value="Nhân viên" style="whiteSpace=wrap;html=1;align=center;fontSize=16;" parent="1" vertex="1">
          <mxGeometry x="-197" y="2478" width="135" height="40" as="geometry" />
        </mxCell>
        <mxCell id="pqIIrUzcT10Te7JTkzrq-2" value="sổ bảo hiểm xã hội" style="shape=ext;margin=3;double=1;whiteSpace=wrap;html=1;align=center;fontSize=16;" parent="1" vertex="1">
          <mxGeometry x="16.999999999999993" y="2478" width="162" height="40" as="geometry" />
        </mxCell>
        <mxCell id="pqIIrUzcT10Te7JTkzrq-4" value="week entity" style="shape=ext;margin=3;double=1;whiteSpace=wrap;html=1;align=center;" parent="1" vertex="1">
          <mxGeometry x="-208" y="1547" width="100" height="40" as="geometry" />
        </mxCell>
        <mxCell id="pqIIrUzcT10Te7JTkzrq-5" value="strong entity" style="whiteSpace=wrap;html=1;align=center;" parent="1" vertex="1">
          <mxGeometry x="-208" y="1607" width="100" height="40" as="geometry" />
        </mxCell>
        <mxCell id="pqIIrUzcT10Te7JTkzrq-6" value="Key Attribute" style="ellipse;whiteSpace=wrap;html=1;align=center;fontStyle=4;" parent="1" vertex="1">
          <mxGeometry x="-28" y="1547" width="100" height="40" as="geometry" />
        </mxCell>
        <mxCell id="pqIIrUzcT10Te7JTkzrq-7" value="Simple Attribute" style="ellipse;whiteSpace=wrap;html=1;align=center;" parent="1" vertex="1">
          <mxGeometry x="-28" y="1607" width="100" height="40" as="geometry" />
        </mxCell>
        <mxCell id="pqIIrUzcT10Te7JTkzrq-8" value="Derived Attribute" style="ellipse;whiteSpace=wrap;html=1;align=center;dashed=1;" parent="1" vertex="1">
          <mxGeometry x="-28" y="1677" width="100" height="40" as="geometry" />
        </mxCell>
        <mxCell id="pqIIrUzcT10Te7JTkzrq-9" value="Multiple value Attribute" style="ellipse;shape=doubleEllipse;margin=3;whiteSpace=wrap;html=1;align=center;" parent="1" vertex="1">
          <mxGeometry x="-28" y="1757" width="100" height="40" as="geometry" />
        </mxCell>
        <mxCell id="pqIIrUzcT10Te7JTkzrq-10" value="Relationship" style="shape=rhombus;perimeter=rhombusPerimeter;whiteSpace=wrap;html=1;align=center;" parent="1" vertex="1">
          <mxGeometry x="-208" y="1667" width="120" height="60" as="geometry" />
        </mxCell>
        <mxCell id="pqIIrUzcT10Te7JTkzrq-11" value="Identify&lt;br&gt;Relationship" style="shape=rhombus;double=1;perimeter=rhombusPerimeter;whiteSpace=wrap;html=1;align=center;" parent="1" vertex="1">
          <mxGeometry x="-208" y="1747" width="120" height="60" as="geometry" />
        </mxCell>
        <mxCell id="pqIIrUzcT10Te7JTkzrq-12" value="" style="fontSize=12;html=1;endArrow=ERzeroToMany;endFill=1;rounded=0;" parent="1" edge="1">
          <mxGeometry width="100" height="100" relative="1" as="geometry">
            <mxPoint x="-95" y="1873.8899999999999" as="sourcePoint" />
            <mxPoint x="-37" y="1873.8899999999999" as="targetPoint" />
          </mxGeometry>
        </mxCell>
        <mxCell id="pqIIrUzcT10Te7JTkzrq-13" value="" style="fontSize=12;html=1;endArrow=ERoneToMany;endFill=0;rounded=0;" parent="1" edge="1">
          <mxGeometry width="100" height="100" relative="1" as="geometry">
            <mxPoint x="-95" y="1896.8899999999999" as="sourcePoint" />
            <mxPoint x="-37" y="1896.8899999999999" as="targetPoint" />
          </mxGeometry>
        </mxCell>
        <mxCell id="pqIIrUzcT10Te7JTkzrq-14" value="" style="fontSize=12;html=1;endArrow=ERmandOne;endFill=0;rounded=0;" parent="1" edge="1">
          <mxGeometry width="100" height="100" relative="1" as="geometry">
            <mxPoint x="-95" y="1918.8899999999999" as="sourcePoint" />
            <mxPoint x="-37" y="1918.8899999999999" as="targetPoint" />
          </mxGeometry>
        </mxCell>
        <mxCell id="pqIIrUzcT10Te7JTkzrq-15" value="" style="fontSize=12;html=1;endArrow=ERzeroToOne;endFill=0;rounded=0;" parent="1" edge="1">
          <mxGeometry width="100" height="100" relative="1" as="geometry">
            <mxPoint x="-95" y="1941.8899999999999" as="sourcePoint" />
            <mxPoint x="-37" y="1941.8899999999999" as="targetPoint" />
          </mxGeometry>
        </mxCell>
        <mxCell id="pqIIrUzcT10Te7JTkzrq-16" value="không hoặc nhiều" style="text;html=1;align=center;verticalAlign=middle;resizable=0;points=[];autosize=1;strokeColor=none;fillColor=none;" parent="1" vertex="1">
          <mxGeometry x="-37" y="1861" width="113" height="26" as="geometry" />
        </mxCell>
        <mxCell id="pqIIrUzcT10Te7JTkzrq-17" value="một hoặc nhiều" style="text;html=1;align=center;verticalAlign=middle;resizable=0;points=[];autosize=1;strokeColor=none;fillColor=none;" parent="1" vertex="1">
          <mxGeometry x="-37" y="1884" width="100" height="26" as="geometry" />
        </mxCell>
        <mxCell id="pqIIrUzcT10Te7JTkzrq-18" value="một và chỉ một" style="text;html=1;align=center;verticalAlign=middle;resizable=0;points=[];autosize=1;strokeColor=none;fillColor=none;" parent="1" vertex="1">
          <mxGeometry x="-37" y="1906" width="96" height="26" as="geometry" />
        </mxCell>
        <mxCell id="pqIIrUzcT10Te7JTkzrq-19" value="không hoặc một" style="text;html=1;align=center;verticalAlign=middle;resizable=0;points=[];autosize=1;strokeColor=none;fillColor=none;" parent="1" vertex="1">
          <mxGeometry x="-37" y="1929" width="103" height="26" as="geometry" />
        </mxCell>
        <mxCell id="pqIIrUzcT10Te7JTkzrq-20" value="Customer" style="shape=table;startSize=30;container=1;collapsible=1;childLayout=tableLayout;fixedRows=1;rowLines=0;fontStyle=1;align=center;resizeLast=1;html=1;" parent="1" vertex="1">
          <mxGeometry x="-268" y="2021" width="180" height="150" as="geometry" />
        </mxCell>
        <mxCell id="pqIIrUzcT10Te7JTkzrq-21" value="" style="shape=tableRow;horizontal=0;startSize=0;swimlaneHead=0;swimlaneBody=0;fillColor=none;collapsible=0;dropTarget=0;points=[[0,0.5],[1,0.5]];portConstraint=eastwest;top=0;left=0;right=0;bottom=1;" parent="pqIIrUzcT10Te7JTkzrq-20" vertex="1">
          <mxGeometry y="30" width="180" height="30" as="geometry" />
        </mxCell>
        <mxCell id="pqIIrUzcT10Te7JTkzrq-22" value="PK" style="shape=partialRectangle;connectable=0;fillColor=none;top=0;left=0;bottom=0;right=0;fontStyle=1;overflow=hidden;whiteSpace=wrap;html=1;" parent="pqIIrUzcT10Te7JTkzrq-21" vertex="1">
          <mxGeometry width="30" height="30" as="geometry">
            <mxRectangle width="30" height="30" as="alternateBounds" />
          </mxGeometry>
        </mxCell>
        <mxCell id="pqIIrUzcT10Te7JTkzrq-23" value="CustomerID" style="shape=partialRectangle;connectable=0;fillColor=none;top=0;left=0;bottom=0;right=0;align=left;spacingLeft=6;fontStyle=5;overflow=hidden;whiteSpace=wrap;html=1;" parent="pqIIrUzcT10Te7JTkzrq-21" vertex="1">
          <mxGeometry x="30" width="150" height="30" as="geometry">
            <mxRectangle width="150" height="30" as="alternateBounds" />
          </mxGeometry>
        </mxCell>
        <mxCell id="pqIIrUzcT10Te7JTkzrq-24" value="" style="shape=tableRow;horizontal=0;startSize=0;swimlaneHead=0;swimlaneBody=0;fillColor=none;collapsible=0;dropTarget=0;points=[[0,0.5],[1,0.5]];portConstraint=eastwest;top=0;left=0;right=0;bottom=0;" parent="pqIIrUzcT10Te7JTkzrq-20" vertex="1">
          <mxGeometry y="60" width="180" height="30" as="geometry" />
        </mxCell>
        <mxCell id="pqIIrUzcT10Te7JTkzrq-25" value="" style="shape=partialRectangle;connectable=0;fillColor=none;top=0;left=0;bottom=0;right=0;editable=1;overflow=hidden;whiteSpace=wrap;html=1;" parent="pqIIrUzcT10Te7JTkzrq-24" vertex="1">
          <mxGeometry width="30" height="30" as="geometry">
            <mxRectangle width="30" height="30" as="alternateBounds" />
          </mxGeometry>
        </mxCell>
        <mxCell id="pqIIrUzcT10Te7JTkzrq-26" value="FirstName" style="shape=partialRectangle;connectable=0;fillColor=none;top=0;left=0;bottom=0;right=0;align=left;spacingLeft=6;overflow=hidden;whiteSpace=wrap;html=1;" parent="pqIIrUzcT10Te7JTkzrq-24" vertex="1">
          <mxGeometry x="30" width="150" height="30" as="geometry">
            <mxRectangle width="150" height="30" as="alternateBounds" />
          </mxGeometry>
        </mxCell>
        <mxCell id="pqIIrUzcT10Te7JTkzrq-27" value="" style="shape=tableRow;horizontal=0;startSize=0;swimlaneHead=0;swimlaneBody=0;fillColor=none;collapsible=0;dropTarget=0;points=[[0,0.5],[1,0.5]];portConstraint=eastwest;top=0;left=0;right=0;bottom=0;" parent="pqIIrUzcT10Te7JTkzrq-20" vertex="1">
          <mxGeometry y="90" width="180" height="30" as="geometry" />
        </mxCell>
        <mxCell id="pqIIrUzcT10Te7JTkzrq-28" value="" style="shape=partialRectangle;connectable=0;fillColor=none;top=0;left=0;bottom=0;right=0;editable=1;overflow=hidden;whiteSpace=wrap;html=1;" parent="pqIIrUzcT10Te7JTkzrq-27" vertex="1">
          <mxGeometry width="30" height="30" as="geometry">
            <mxRectangle width="30" height="30" as="alternateBounds" />
          </mxGeometry>
        </mxCell>
        <mxCell id="pqIIrUzcT10Te7JTkzrq-29" value="LastNAme" style="shape=partialRectangle;connectable=0;fillColor=none;top=0;left=0;bottom=0;right=0;align=left;spacingLeft=6;overflow=hidden;whiteSpace=wrap;html=1;" parent="pqIIrUzcT10Te7JTkzrq-27" vertex="1">
          <mxGeometry x="30" width="150" height="30" as="geometry">
            <mxRectangle width="150" height="30" as="alternateBounds" />
          </mxGeometry>
        </mxCell>
        <mxCell id="pqIIrUzcT10Te7JTkzrq-30" value="" style="shape=tableRow;horizontal=0;startSize=0;swimlaneHead=0;swimlaneBody=0;fillColor=none;collapsible=0;dropTarget=0;points=[[0,0.5],[1,0.5]];portConstraint=eastwest;top=0;left=0;right=0;bottom=0;" parent="pqIIrUzcT10Te7JTkzrq-20" vertex="1">
          <mxGeometry y="120" width="180" height="30" as="geometry" />
        </mxCell>
        <mxCell id="pqIIrUzcT10Te7JTkzrq-31" value="" style="shape=partialRectangle;connectable=0;fillColor=none;top=0;left=0;bottom=0;right=0;editable=1;overflow=hidden;whiteSpace=wrap;html=1;" parent="pqIIrUzcT10Te7JTkzrq-30" vertex="1">
          <mxGeometry width="30" height="30" as="geometry">
            <mxRectangle width="30" height="30" as="alternateBounds" />
          </mxGeometry>
        </mxCell>
        <mxCell id="pqIIrUzcT10Te7JTkzrq-32" value="..." style="shape=partialRectangle;connectable=0;fillColor=none;top=0;left=0;bottom=0;right=0;align=left;spacingLeft=6;overflow=hidden;whiteSpace=wrap;html=1;" parent="pqIIrUzcT10Te7JTkzrq-30" vertex="1">
          <mxGeometry x="30" width="150" height="30" as="geometry">
            <mxRectangle width="150" height="30" as="alternateBounds" />
          </mxGeometry>
        </mxCell>
        <mxCell id="pqIIrUzcT10Te7JTkzrq-33" value="Order" style="shape=table;startSize=30;container=1;collapsible=1;childLayout=tableLayout;fixedRows=1;rowLines=0;fontStyle=1;align=center;resizeLast=1;html=1;whiteSpace=wrap;" parent="1" vertex="1">
          <mxGeometry x="-31" y="2021" width="180" height="150" as="geometry" />
        </mxCell>
        <mxCell id="pqIIrUzcT10Te7JTkzrq-34" value="" style="shape=tableRow;horizontal=0;startSize=0;swimlaneHead=0;swimlaneBody=0;fillColor=none;collapsible=0;dropTarget=0;points=[[0,0.5],[1,0.5]];portConstraint=eastwest;top=0;left=0;right=0;bottom=0;html=1;" parent="pqIIrUzcT10Te7JTkzrq-33" vertex="1">
          <mxGeometry y="30" width="180" height="30" as="geometry" />
        </mxCell>
        <mxCell id="pqIIrUzcT10Te7JTkzrq-35" value="PK" style="shape=partialRectangle;connectable=0;fillColor=none;top=0;left=0;bottom=0;right=0;fontStyle=1;overflow=hidden;html=1;whiteSpace=wrap;" parent="pqIIrUzcT10Te7JTkzrq-34" vertex="1">
          <mxGeometry width="60" height="30" as="geometry">
            <mxRectangle width="60" height="30" as="alternateBounds" />
          </mxGeometry>
        </mxCell>
        <mxCell id="pqIIrUzcT10Te7JTkzrq-36" value="OrderID" style="shape=partialRectangle;connectable=0;fillColor=none;top=0;left=0;bottom=0;right=0;align=left;spacingLeft=6;fontStyle=5;overflow=hidden;html=1;whiteSpace=wrap;" parent="pqIIrUzcT10Te7JTkzrq-34" vertex="1">
          <mxGeometry x="60" width="120" height="30" as="geometry">
            <mxRectangle width="120" height="30" as="alternateBounds" />
          </mxGeometry>
        </mxCell>
        <mxCell id="pqIIrUzcT10Te7JTkzrq-37" value="" style="shape=tableRow;horizontal=0;startSize=0;swimlaneHead=0;swimlaneBody=0;fillColor=none;collapsible=0;dropTarget=0;points=[[0,0.5],[1,0.5]];portConstraint=eastwest;top=0;left=0;right=0;bottom=1;html=1;" parent="pqIIrUzcT10Te7JTkzrq-33" vertex="1">
          <mxGeometry y="60" width="180" height="30" as="geometry" />
        </mxCell>
        <mxCell id="pqIIrUzcT10Te7JTkzrq-38" value="FK" style="shape=partialRectangle;connectable=0;fillColor=none;top=0;left=0;bottom=0;right=0;fontStyle=1;overflow=hidden;html=1;whiteSpace=wrap;" parent="pqIIrUzcT10Te7JTkzrq-37" vertex="1">
          <mxGeometry width="60" height="30" as="geometry">
            <mxRectangle width="60" height="30" as="alternateBounds" />
          </mxGeometry>
        </mxCell>
        <mxCell id="pqIIrUzcT10Te7JTkzrq-39" value="CustomerID" style="shape=partialRectangle;connectable=0;fillColor=none;top=0;left=0;bottom=0;right=0;align=left;spacingLeft=6;fontStyle=5;overflow=hidden;html=1;whiteSpace=wrap;" parent="pqIIrUzcT10Te7JTkzrq-37" vertex="1">
          <mxGeometry x="60" width="120" height="30" as="geometry">
            <mxRectangle width="120" height="30" as="alternateBounds" />
          </mxGeometry>
        </mxCell>
        <mxCell id="pqIIrUzcT10Te7JTkzrq-40" value="" style="shape=tableRow;horizontal=0;startSize=0;swimlaneHead=0;swimlaneBody=0;fillColor=none;collapsible=0;dropTarget=0;points=[[0,0.5],[1,0.5]];portConstraint=eastwest;top=0;left=0;right=0;bottom=0;html=1;" parent="pqIIrUzcT10Te7JTkzrq-33" vertex="1">
          <mxGeometry y="90" width="180" height="30" as="geometry" />
        </mxCell>
        <mxCell id="pqIIrUzcT10Te7JTkzrq-41" value="" style="shape=partialRectangle;connectable=0;fillColor=none;top=0;left=0;bottom=0;right=0;editable=1;overflow=hidden;html=1;whiteSpace=wrap;" parent="pqIIrUzcT10Te7JTkzrq-40" vertex="1">
          <mxGeometry width="60" height="30" as="geometry">
            <mxRectangle width="60" height="30" as="alternateBounds" />
          </mxGeometry>
        </mxCell>
        <mxCell id="pqIIrUzcT10Te7JTkzrq-42" value="TotalAmount" style="shape=partialRectangle;connectable=0;fillColor=none;top=0;left=0;bottom=0;right=0;align=left;spacingLeft=6;overflow=hidden;html=1;whiteSpace=wrap;" parent="pqIIrUzcT10Te7JTkzrq-40" vertex="1">
          <mxGeometry x="60" width="120" height="30" as="geometry">
            <mxRectangle width="120" height="30" as="alternateBounds" />
          </mxGeometry>
        </mxCell>
        <mxCell id="pqIIrUzcT10Te7JTkzrq-43" value="" style="shape=tableRow;horizontal=0;startSize=0;swimlaneHead=0;swimlaneBody=0;fillColor=none;collapsible=0;dropTarget=0;points=[[0,0.5],[1,0.5]];portConstraint=eastwest;top=0;left=0;right=0;bottom=0;html=1;" parent="pqIIrUzcT10Te7JTkzrq-33" vertex="1">
          <mxGeometry y="120" width="180" height="30" as="geometry" />
        </mxCell>
        <mxCell id="pqIIrUzcT10Te7JTkzrq-44" value="" style="shape=partialRectangle;connectable=0;fillColor=none;top=0;left=0;bottom=0;right=0;editable=1;overflow=hidden;html=1;whiteSpace=wrap;" parent="pqIIrUzcT10Te7JTkzrq-43" vertex="1">
          <mxGeometry width="60" height="30" as="geometry">
            <mxRectangle width="60" height="30" as="alternateBounds" />
          </mxGeometry>
        </mxCell>
        <mxCell id="pqIIrUzcT10Te7JTkzrq-45" value="DeliveryAdress" style="shape=partialRectangle;connectable=0;fillColor=none;top=0;left=0;bottom=0;right=0;align=left;spacingLeft=6;overflow=hidden;html=1;whiteSpace=wrap;" parent="pqIIrUzcT10Te7JTkzrq-43" vertex="1">
          <mxGeometry x="60" width="120" height="30" as="geometry">
            <mxRectangle width="120" height="30" as="alternateBounds" />
          </mxGeometry>
        </mxCell>
        <mxCell id="pqIIrUzcT10Te7JTkzrq-46" style="edgeStyle=orthogonalEdgeStyle;rounded=0;orthogonalLoop=1;jettySize=auto;html=1;exitX=0;exitY=0.5;exitDx=0;exitDy=0;entryX=1;entryY=0.5;entryDx=0;entryDy=0;" parent="1" source="pqIIrUzcT10Te7JTkzrq-37" target="pqIIrUzcT10Te7JTkzrq-21" edge="1">
          <mxGeometry relative="1" as="geometry" />
        </mxCell>
        <mxCell id="pqIIrUzcT10Te7JTkzrq-47" value="OrderDetail" style="shape=table;startSize=30;container=1;collapsible=1;childLayout=tableLayout;fixedRows=1;rowLines=0;fontStyle=1;align=center;resizeLast=1;html=1;whiteSpace=wrap;" parent="1" vertex="1">
          <mxGeometry x="199" y="2021" width="180" height="150" as="geometry" />
        </mxCell>
        <mxCell id="pqIIrUzcT10Te7JTkzrq-48" value="" style="shape=tableRow;horizontal=0;startSize=0;swimlaneHead=0;swimlaneBody=0;fillColor=none;collapsible=0;dropTarget=0;points=[[0,0.5],[1,0.5]];portConstraint=eastwest;top=0;left=0;right=0;bottom=0;html=1;" parent="pqIIrUzcT10Te7JTkzrq-47" vertex="1">
          <mxGeometry y="30" width="180" height="30" as="geometry" />
        </mxCell>
        <mxCell id="pqIIrUzcT10Te7JTkzrq-49" value="PK,FK" style="shape=partialRectangle;connectable=0;fillColor=none;top=0;left=0;bottom=0;right=0;fontStyle=1;overflow=hidden;html=1;whiteSpace=wrap;" parent="pqIIrUzcT10Te7JTkzrq-48" vertex="1">
          <mxGeometry width="60" height="30" as="geometry">
            <mxRectangle width="60" height="30" as="alternateBounds" />
          </mxGeometry>
        </mxCell>
        <mxCell id="pqIIrUzcT10Te7JTkzrq-50" value="OrderID" style="shape=partialRectangle;connectable=0;fillColor=none;top=0;left=0;bottom=0;right=0;align=left;spacingLeft=6;fontStyle=5;overflow=hidden;html=1;whiteSpace=wrap;" parent="pqIIrUzcT10Te7JTkzrq-48" vertex="1">
          <mxGeometry x="60" width="120" height="30" as="geometry">
            <mxRectangle width="120" height="30" as="alternateBounds" />
          </mxGeometry>
        </mxCell>
        <mxCell id="pqIIrUzcT10Te7JTkzrq-51" value="" style="shape=tableRow;horizontal=0;startSize=0;swimlaneHead=0;swimlaneBody=0;fillColor=none;collapsible=0;dropTarget=0;points=[[0,0.5],[1,0.5]];portConstraint=eastwest;top=0;left=0;right=0;bottom=1;html=1;" parent="pqIIrUzcT10Te7JTkzrq-47" vertex="1">
          <mxGeometry y="60" width="180" height="30" as="geometry" />
        </mxCell>
        <mxCell id="pqIIrUzcT10Te7JTkzrq-52" value="PK,FK" style="shape=partialRectangle;connectable=0;fillColor=none;top=0;left=0;bottom=0;right=0;fontStyle=1;overflow=hidden;html=1;whiteSpace=wrap;" parent="pqIIrUzcT10Te7JTkzrq-51" vertex="1">
          <mxGeometry width="60" height="30" as="geometry">
            <mxRectangle width="60" height="30" as="alternateBounds" />
          </mxGeometry>
        </mxCell>
        <mxCell id="pqIIrUzcT10Te7JTkzrq-53" value="ProductID" style="shape=partialRectangle;connectable=0;fillColor=none;top=0;left=0;bottom=0;right=0;align=left;spacingLeft=6;fontStyle=5;overflow=hidden;html=1;whiteSpace=wrap;" parent="pqIIrUzcT10Te7JTkzrq-51" vertex="1">
          <mxGeometry x="60" width="120" height="30" as="geometry">
            <mxRectangle width="120" height="30" as="alternateBounds" />
          </mxGeometry>
        </mxCell>
        <mxCell id="pqIIrUzcT10Te7JTkzrq-54" value="" style="shape=tableRow;horizontal=0;startSize=0;swimlaneHead=0;swimlaneBody=0;fillColor=none;collapsible=0;dropTarget=0;points=[[0,0.5],[1,0.5]];portConstraint=eastwest;top=0;left=0;right=0;bottom=0;html=1;" parent="pqIIrUzcT10Te7JTkzrq-47" vertex="1">
          <mxGeometry y="90" width="180" height="30" as="geometry" />
        </mxCell>
        <mxCell id="pqIIrUzcT10Te7JTkzrq-55" value="" style="shape=partialRectangle;connectable=0;fillColor=none;top=0;left=0;bottom=0;right=0;editable=1;overflow=hidden;html=1;whiteSpace=wrap;" parent="pqIIrUzcT10Te7JTkzrq-54" vertex="1">
          <mxGeometry width="60" height="30" as="geometry">
            <mxRectangle width="60" height="30" as="alternateBounds" />
          </mxGeometry>
        </mxCell>
        <mxCell id="pqIIrUzcT10Te7JTkzrq-56" value="Quantity" style="shape=partialRectangle;connectable=0;fillColor=none;top=0;left=0;bottom=0;right=0;align=left;spacingLeft=6;overflow=hidden;html=1;whiteSpace=wrap;" parent="pqIIrUzcT10Te7JTkzrq-54" vertex="1">
          <mxGeometry x="60" width="120" height="30" as="geometry">
            <mxRectangle width="120" height="30" as="alternateBounds" />
          </mxGeometry>
        </mxCell>
        <mxCell id="pqIIrUzcT10Te7JTkzrq-57" value="" style="shape=tableRow;horizontal=0;startSize=0;swimlaneHead=0;swimlaneBody=0;fillColor=none;collapsible=0;dropTarget=0;points=[[0,0.5],[1,0.5]];portConstraint=eastwest;top=0;left=0;right=0;bottom=0;html=1;" parent="pqIIrUzcT10Te7JTkzrq-47" vertex="1">
          <mxGeometry y="120" width="180" height="30" as="geometry" />
        </mxCell>
        <mxCell id="pqIIrUzcT10Te7JTkzrq-58" value="" style="shape=partialRectangle;connectable=0;fillColor=none;top=0;left=0;bottom=0;right=0;editable=1;overflow=hidden;html=1;whiteSpace=wrap;" parent="pqIIrUzcT10Te7JTkzrq-57" vertex="1">
          <mxGeometry width="60" height="30" as="geometry">
            <mxRectangle width="60" height="30" as="alternateBounds" />
          </mxGeometry>
        </mxCell>
        <mxCell id="pqIIrUzcT10Te7JTkzrq-59" value="PriceSale" style="shape=partialRectangle;connectable=0;fillColor=none;top=0;left=0;bottom=0;right=0;align=left;spacingLeft=6;overflow=hidden;html=1;whiteSpace=wrap;" parent="pqIIrUzcT10Te7JTkzrq-57" vertex="1">
          <mxGeometry x="60" width="120" height="30" as="geometry">
            <mxRectangle width="120" height="30" as="alternateBounds" />
          </mxGeometry>
        </mxCell>
        <mxCell id="pqIIrUzcT10Te7JTkzrq-60" style="edgeStyle=orthogonalEdgeStyle;rounded=0;orthogonalLoop=1;jettySize=auto;html=1;entryX=1;entryY=0.5;entryDx=0;entryDy=0;" parent="1" source="pqIIrUzcT10Te7JTkzrq-48" target="pqIIrUzcT10Te7JTkzrq-34" edge="1">
          <mxGeometry relative="1" as="geometry" />
        </mxCell>
        <mxCell id="pqIIrUzcT10Te7JTkzrq-61" value="Product" style="shape=table;startSize=30;container=1;collapsible=1;childLayout=tableLayout;fixedRows=1;rowLines=0;fontStyle=1;align=center;resizeLast=1;html=1;" parent="1" vertex="1">
          <mxGeometry x="199" y="2219" width="180" height="150" as="geometry" />
        </mxCell>
        <mxCell id="pqIIrUzcT10Te7JTkzrq-62" value="" style="shape=tableRow;horizontal=0;startSize=0;swimlaneHead=0;swimlaneBody=0;fillColor=none;collapsible=0;dropTarget=0;points=[[0,0.5],[1,0.5]];portConstraint=eastwest;top=0;left=0;right=0;bottom=1;" parent="pqIIrUzcT10Te7JTkzrq-61" vertex="1">
          <mxGeometry y="30" width="180" height="30" as="geometry" />
        </mxCell>
        <mxCell id="pqIIrUzcT10Te7JTkzrq-63" value="PK" style="shape=partialRectangle;connectable=0;fillColor=none;top=0;left=0;bottom=0;right=0;fontStyle=1;overflow=hidden;whiteSpace=wrap;html=1;" parent="pqIIrUzcT10Te7JTkzrq-62" vertex="1">
          <mxGeometry width="30" height="30" as="geometry">
            <mxRectangle width="30" height="30" as="alternateBounds" />
          </mxGeometry>
        </mxCell>
        <mxCell id="pqIIrUzcT10Te7JTkzrq-64" value="ProductID" style="shape=partialRectangle;connectable=0;fillColor=none;top=0;left=0;bottom=0;right=0;align=left;spacingLeft=6;fontStyle=5;overflow=hidden;whiteSpace=wrap;html=1;" parent="pqIIrUzcT10Te7JTkzrq-62" vertex="1">
          <mxGeometry x="30" width="150" height="30" as="geometry">
            <mxRectangle width="150" height="30" as="alternateBounds" />
          </mxGeometry>
        </mxCell>
        <mxCell id="pqIIrUzcT10Te7JTkzrq-65" value="" style="shape=tableRow;horizontal=0;startSize=0;swimlaneHead=0;swimlaneBody=0;fillColor=none;collapsible=0;dropTarget=0;points=[[0,0.5],[1,0.5]];portConstraint=eastwest;top=0;left=0;right=0;bottom=0;" parent="pqIIrUzcT10Te7JTkzrq-61" vertex="1">
          <mxGeometry y="60" width="180" height="30" as="geometry" />
        </mxCell>
        <mxCell id="pqIIrUzcT10Te7JTkzrq-66" value="" style="shape=partialRectangle;connectable=0;fillColor=none;top=0;left=0;bottom=0;right=0;editable=1;overflow=hidden;whiteSpace=wrap;html=1;" parent="pqIIrUzcT10Te7JTkzrq-65" vertex="1">
          <mxGeometry width="30" height="30" as="geometry">
            <mxRectangle width="30" height="30" as="alternateBounds" />
          </mxGeometry>
        </mxCell>
        <mxCell id="pqIIrUzcT10Te7JTkzrq-67" value="ProductName" style="shape=partialRectangle;connectable=0;fillColor=none;top=0;left=0;bottom=0;right=0;align=left;spacingLeft=6;overflow=hidden;whiteSpace=wrap;html=1;" parent="pqIIrUzcT10Te7JTkzrq-65" vertex="1">
          <mxGeometry x="30" width="150" height="30" as="geometry">
            <mxRectangle width="150" height="30" as="alternateBounds" />
          </mxGeometry>
        </mxCell>
        <mxCell id="pqIIrUzcT10Te7JTkzrq-68" value="" style="shape=tableRow;horizontal=0;startSize=0;swimlaneHead=0;swimlaneBody=0;fillColor=none;collapsible=0;dropTarget=0;points=[[0,0.5],[1,0.5]];portConstraint=eastwest;top=0;left=0;right=0;bottom=0;" parent="pqIIrUzcT10Te7JTkzrq-61" vertex="1">
          <mxGeometry y="90" width="180" height="30" as="geometry" />
        </mxCell>
        <mxCell id="pqIIrUzcT10Te7JTkzrq-69" value="" style="shape=partialRectangle;connectable=0;fillColor=none;top=0;left=0;bottom=0;right=0;editable=1;overflow=hidden;whiteSpace=wrap;html=1;" parent="pqIIrUzcT10Te7JTkzrq-68" vertex="1">
          <mxGeometry width="30" height="30" as="geometry">
            <mxRectangle width="30" height="30" as="alternateBounds" />
          </mxGeometry>
        </mxCell>
        <mxCell id="pqIIrUzcT10Te7JTkzrq-70" value="Price" style="shape=partialRectangle;connectable=0;fillColor=none;top=0;left=0;bottom=0;right=0;align=left;spacingLeft=6;overflow=hidden;whiteSpace=wrap;html=1;" parent="pqIIrUzcT10Te7JTkzrq-68" vertex="1">
          <mxGeometry x="30" width="150" height="30" as="geometry">
            <mxRectangle width="150" height="30" as="alternateBounds" />
          </mxGeometry>
        </mxCell>
        <mxCell id="pqIIrUzcT10Te7JTkzrq-71" value="" style="shape=tableRow;horizontal=0;startSize=0;swimlaneHead=0;swimlaneBody=0;fillColor=none;collapsible=0;dropTarget=0;points=[[0,0.5],[1,0.5]];portConstraint=eastwest;top=0;left=0;right=0;bottom=0;" parent="pqIIrUzcT10Te7JTkzrq-61" vertex="1">
          <mxGeometry y="120" width="180" height="30" as="geometry" />
        </mxCell>
        <mxCell id="pqIIrUzcT10Te7JTkzrq-72" value="" style="shape=partialRectangle;connectable=0;fillColor=none;top=0;left=0;bottom=0;right=0;editable=1;overflow=hidden;whiteSpace=wrap;html=1;" parent="pqIIrUzcT10Te7JTkzrq-71" vertex="1">
          <mxGeometry width="30" height="30" as="geometry">
            <mxRectangle width="30" height="30" as="alternateBounds" />
          </mxGeometry>
        </mxCell>
        <mxCell id="pqIIrUzcT10Te7JTkzrq-73" value="Quantity" style="shape=partialRectangle;connectable=0;fillColor=none;top=0;left=0;bottom=0;right=0;align=left;spacingLeft=6;overflow=hidden;whiteSpace=wrap;html=1;" parent="pqIIrUzcT10Te7JTkzrq-71" vertex="1">
          <mxGeometry x="30" width="150" height="30" as="geometry">
            <mxRectangle width="150" height="30" as="alternateBounds" />
          </mxGeometry>
        </mxCell>
        <mxCell id="pqIIrUzcT10Te7JTkzrq-74" style="edgeStyle=orthogonalEdgeStyle;rounded=0;orthogonalLoop=1;jettySize=auto;html=1;exitX=0;exitY=0.5;exitDx=0;exitDy=0;entryX=0;entryY=0.5;entryDx=0;entryDy=0;" parent="1" source="pqIIrUzcT10Te7JTkzrq-51" target="pqIIrUzcT10Te7JTkzrq-62" edge="1">
          <mxGeometry relative="1" as="geometry" />
        </mxCell>
        <mxCell id="pqIIrUzcT10Te7JTkzrq-76" style="edgeStyle=none;curved=1;rounded=0;orthogonalLoop=1;jettySize=auto;html=1;exitX=1;exitY=0.5;exitDx=0;exitDy=0;fontSize=12;startSize=8;endSize=8;startArrow=ERmandOne;startFill=0;endArrow=ERmandOne;endFill=0;" parent="1" source="pqIIrUzcT10Te7JTkzrq-77" edge="1">
          <mxGeometry relative="1" as="geometry">
            <mxPoint x="43.99999999999999" y="2571" as="targetPoint" />
          </mxGeometry>
        </mxCell>
        <mxCell id="pqIIrUzcT10Te7JTkzrq-77" value="Nhân viên" style="whiteSpace=wrap;html=1;align=center;fontSize=16;" parent="1" vertex="1">
          <mxGeometry x="-197" y="2551" width="135" height="40" as="geometry" />
        </mxCell>
        <mxCell id="pqIIrUzcT10Te7JTkzrq-82" style="edgeStyle=none;curved=1;rounded=0;orthogonalLoop=1;jettySize=auto;html=1;exitX=1;exitY=0.5;exitDx=0;exitDy=0;fontSize=12;startSize=8;endSize=8;startArrow=ERmandOne;startFill=0;endArrow=ERzeroToOne;endFill=0;" parent="1" source="pqIIrUzcT10Te7JTkzrq-83" target="pqIIrUzcT10Te7JTkzrq-84" edge="1">
          <mxGeometry relative="1" as="geometry" />
        </mxCell>
        <mxCell id="pqIIrUzcT10Te7JTkzrq-83" value="Người" style="whiteSpace=wrap;html=1;align=center;fontSize=16;" parent="1" vertex="1">
          <mxGeometry x="-197" y="2613" width="135" height="40" as="geometry" />
        </mxCell>
        <mxCell id="pqIIrUzcT10Te7JTkzrq-84" value="Thẻ Căn Cước" style="shape=ext;margin=3;double=1;whiteSpace=wrap;html=1;align=center;fontSize=16;" parent="1" vertex="1">
          <mxGeometry x="43.99999999999999" y="2613" width="135" height="40" as="geometry" />
        </mxCell>
        <mxCell id="pqIIrUzcT10Te7JTkzrq-85" value="Thẻ Nhân viên" style="whiteSpace=wrap;html=1;align=center;fontSize=16;" parent="1" vertex="1">
          <mxGeometry x="43.99999999999999" y="2551" width="135" height="40" as="geometry" />
        </mxCell>
        <mxCell id="pqIIrUzcT10Te7JTkzrq-93" style="edgeStyle=none;curved=1;rounded=0;orthogonalLoop=1;jettySize=auto;html=1;exitX=1;exitY=0.5;exitDx=0;exitDy=0;fontSize=12;startSize=8;endSize=8;startArrow=ERmandOne;startFill=0;endArrow=ERzeroToMany;endFill=0;" parent="1" source="pqIIrUzcT10Te7JTkzrq-94" edge="1">
          <mxGeometry relative="1" as="geometry">
            <mxPoint x="47.99999999999999" y="2712" as="targetPoint" />
          </mxGeometry>
        </mxCell>
        <mxCell id="pqIIrUzcT10Te7JTkzrq-94" value="Nhà xuất bản" style="whiteSpace=wrap;html=1;align=center;fontSize=16;" parent="1" vertex="1">
          <mxGeometry x="-193" y="2692" width="135" height="40" as="geometry" />
        </mxCell>
        <mxCell id="pqIIrUzcT10Te7JTkzrq-95" style="edgeStyle=none;curved=1;rounded=0;orthogonalLoop=1;jettySize=auto;html=1;exitX=1;exitY=0.5;exitDx=0;exitDy=0;fontSize=12;startSize=8;endSize=8;startArrow=ERmandOne;startFill=0;endArrow=ERzeroToMany;endFill=0;" parent="1" source="pqIIrUzcT10Te7JTkzrq-96" target="pqIIrUzcT10Te7JTkzrq-97" edge="1">
          <mxGeometry relative="1" as="geometry" />
        </mxCell>
        <mxCell id="pqIIrUzcT10Te7JTkzrq-96" value="Khách hàng" style="whiteSpace=wrap;html=1;align=center;fontSize=16;" parent="1" vertex="1">
          <mxGeometry x="-193" y="2754" width="135" height="40" as="geometry" />
        </mxCell>
        <mxCell id="pqIIrUzcT10Te7JTkzrq-97" value="Đơn Hàng" style="shape=ext;margin=3;double=1;whiteSpace=wrap;html=1;align=center;fontSize=16;" parent="1" vertex="1">
          <mxGeometry x="47.99999999999999" y="2754" width="135" height="40" as="geometry" />
        </mxCell>
        <mxCell id="pqIIrUzcT10Te7JTkzrq-98" value="Sách" style="whiteSpace=wrap;html=1;align=center;fontSize=16;" parent="1" vertex="1">
          <mxGeometry x="47.99999999999999" y="2692" width="135" height="40" as="geometry" />
        </mxCell>
        <mxCell id="pqIIrUzcT10Te7JTkzrq-99" value="Đơn Hàng" style="shape=ext;margin=3;double=1;whiteSpace=wrap;html=1;align=center;fontSize=16;" parent="1" vertex="1">
          <mxGeometry x="-193" y="2810" width="135" height="40" as="geometry" />
        </mxCell>
        <mxCell id="pqIIrUzcT10Te7JTkzrq-100" style="edgeStyle=none;curved=1;rounded=0;orthogonalLoop=1;jettySize=auto;html=1;exitX=1;exitY=0.5;exitDx=0;exitDy=0;fontSize=12;startSize=8;endSize=8;startArrow=ERmandOne;startFill=0;endArrow=ERzeroToMany;endFill=0;" parent="1" source="pqIIrUzcT10Te7JTkzrq-99" target="pqIIrUzcT10Te7JTkzrq-101" edge="1">
          <mxGeometry relative="1" as="geometry">
            <mxPoint x="-75" y="2747" as="sourcePoint" />
            <mxPoint x="31" y="2747" as="targetPoint" />
          </mxGeometry>
        </mxCell>
        <mxCell id="pqIIrUzcT10Te7JTkzrq-101" value="Sản Phẩm" style="whiteSpace=wrap;html=1;align=center;fontSize=16;" parent="1" vertex="1">
          <mxGeometry x="48" y="2810" width="135" height="40" as="geometry" />
        </mxCell>
        <mxCell id="pqIIrUzcT10Te7JTkzrq-102" style="edgeStyle=none;curved=1;rounded=0;orthogonalLoop=1;jettySize=auto;html=1;exitX=1;exitY=0.5;exitDx=0;exitDy=0;fontSize=12;startSize=8;endSize=8;endArrow=none;endFill=0;entryX=0;entryY=0.5;entryDx=0;entryDy=0;" parent="1" source="pqIIrUzcT10Te7JTkzrq-104" target="pqIIrUzcT10Te7JTkzrq-113" edge="1">
          <mxGeometry relative="1" as="geometry" />
        </mxCell>
        <mxCell id="pqIIrUzcT10Te7JTkzrq-103" style="edgeStyle=none;curved=1;rounded=0;orthogonalLoop=1;jettySize=auto;html=1;exitX=0.5;exitY=0;exitDx=0;exitDy=0;fontSize=12;startSize=8;endSize=8;endArrow=none;endFill=0;entryX=0.5;entryY=1;entryDx=0;entryDy=0;" parent="1" source="pqIIrUzcT10Te7JTkzrq-104" target="pqIIrUzcT10Te7JTkzrq-112" edge="1">
          <mxGeometry relative="1" as="geometry" />
        </mxCell>
        <mxCell id="pqIIrUzcT10Te7JTkzrq-104" value="Sinh Viên" style="whiteSpace=wrap;html=1;align=center;fontSize=16;" parent="1" vertex="1">
          <mxGeometry x="11" y="2976" width="100" height="40" as="geometry" />
        </mxCell>
        <mxCell id="pqIIrUzcT10Te7JTkzrq-105" style="rounded=0;orthogonalLoop=1;jettySize=auto;html=1;exitX=1;exitY=0.5;exitDx=0;exitDy=0;fontSize=12;startSize=8;endSize=8;endArrow=none;endFill=0;entryX=0;entryY=0.5;entryDx=0;entryDy=0;" parent="1" source="pqIIrUzcT10Te7JTkzrq-106" target="pqIIrUzcT10Te7JTkzrq-104" edge="1">
          <mxGeometry relative="1" as="geometry" />
        </mxCell>
        <mxCell id="pqIIrUzcT10Te7JTkzrq-106" value="Tên" style="ellipse;whiteSpace=wrap;html=1;align=center;fontSize=16;" parent="1" vertex="1">
          <mxGeometry x="-118" y="2946" width="100" height="40" as="geometry" />
        </mxCell>
        <mxCell id="pqIIrUzcT10Te7JTkzrq-107" value="Mã Sinh Viên" style="ellipse;whiteSpace=wrap;html=1;align=center;fontStyle=4;fontSize=16;" parent="1" vertex="1">
          <mxGeometry x="-116" y="3004" width="100" height="40" as="geometry" />
        </mxCell>
        <mxCell id="pqIIrUzcT10Te7JTkzrq-108" value="Ngày Sinh" style="ellipse;whiteSpace=wrap;html=1;align=center;fontSize=16;" parent="1" vertex="1">
          <mxGeometry x="-41" y="2903" width="100" height="40" as="geometry" />
        </mxCell>
        <mxCell id="pqIIrUzcT10Te7JTkzrq-109" style="rounded=0;orthogonalLoop=1;jettySize=auto;html=1;exitX=0.5;exitY=1;exitDx=0;exitDy=0;fontSize=12;startSize=8;endSize=8;endArrow=none;endFill=0;entryX=0.5;entryY=0;entryDx=0;entryDy=0;" parent="1" source="pqIIrUzcT10Te7JTkzrq-108" target="pqIIrUzcT10Te7JTkzrq-104" edge="1">
          <mxGeometry relative="1" as="geometry">
            <mxPoint x="-48" y="3027" as="sourcePoint" />
            <mxPoint x="50" y="3031" as="targetPoint" />
          </mxGeometry>
        </mxCell>
        <mxCell id="pqIIrUzcT10Te7JTkzrq-110" style="rounded=0;orthogonalLoop=1;jettySize=auto;html=1;exitX=0;exitY=0.5;exitDx=0;exitDy=0;fontSize=12;startSize=8;endSize=8;endArrow=none;endFill=0;entryX=1;entryY=0.5;entryDx=0;entryDy=0;" parent="1" source="pqIIrUzcT10Te7JTkzrq-104" target="pqIIrUzcT10Te7JTkzrq-107" edge="1">
          <mxGeometry relative="1" as="geometry">
            <mxPoint x="-33" y="2946" as="sourcePoint" />
            <mxPoint x="80" y="3053" as="targetPoint" />
          </mxGeometry>
        </mxCell>
        <mxCell id="pqIIrUzcT10Te7JTkzrq-112" value="Địa chỉ" style="ellipse;whiteSpace=wrap;html=1;align=center;fontSize=16;" parent="1" vertex="1">
          <mxGeometry x="68" y="2903" width="100" height="40" as="geometry" />
        </mxCell>
        <mxCell id="pqIIrUzcT10Te7JTkzrq-113" value="Email" style="ellipse;shape=doubleEllipse;margin=3;whiteSpace=wrap;html=1;align=center;fontSize=16;" parent="1" vertex="1">
          <mxGeometry x="138" y="2976" width="100" height="40" as="geometry" />
        </mxCell>
        <mxCell id="pqIIrUzcT10Te7JTkzrq-118" value="" style="shape=table;startSize=0;container=1;collapsible=0;childLayout=tableLayout;fontSize=16;" parent="1" vertex="1">
          <mxGeometry x="-181" y="3078" width="347" height="34" as="geometry" />
        </mxCell>
        <mxCell id="pqIIrUzcT10Te7JTkzrq-119" value="" style="shape=tableRow;horizontal=0;startSize=0;swimlaneHead=0;swimlaneBody=0;strokeColor=inherit;top=0;left=0;bottom=0;right=0;collapsible=0;dropTarget=0;fillColor=none;points=[[0,0.5],[1,0.5]];portConstraint=eastwest;fontSize=16;" parent="pqIIrUzcT10Te7JTkzrq-118" vertex="1">
          <mxGeometry width="347" height="34" as="geometry" />
        </mxCell>
        <mxCell id="pqIIrUzcT10Te7JTkzrq-120" value="&lt;u&gt;MaSinhVien&lt;/u&gt;" style="shape=partialRectangle;html=1;whiteSpace=wrap;connectable=0;strokeColor=inherit;overflow=hidden;fillColor=none;top=0;left=0;bottom=0;right=0;pointerEvents=1;fontSize=16;" parent="pqIIrUzcT10Te7JTkzrq-119" vertex="1">
          <mxGeometry width="120" height="34" as="geometry">
            <mxRectangle width="120" height="34" as="alternateBounds" />
          </mxGeometry>
        </mxCell>
        <mxCell id="pqIIrUzcT10Te7JTkzrq-121" value="Ten" style="shape=partialRectangle;html=1;whiteSpace=wrap;connectable=0;strokeColor=inherit;overflow=hidden;fillColor=none;top=0;left=0;bottom=0;right=0;pointerEvents=1;fontSize=16;" parent="pqIIrUzcT10Te7JTkzrq-119" vertex="1">
          <mxGeometry x="120" width="54" height="34" as="geometry">
            <mxRectangle width="54" height="34" as="alternateBounds" />
          </mxGeometry>
        </mxCell>
        <mxCell id="pqIIrUzcT10Te7JTkzrq-122" value="NgaySinh" style="shape=partialRectangle;html=1;whiteSpace=wrap;connectable=0;strokeColor=inherit;overflow=hidden;fillColor=none;top=0;left=0;bottom=0;right=0;pointerEvents=1;fontSize=16;" parent="pqIIrUzcT10Te7JTkzrq-119" vertex="1">
          <mxGeometry x="174" width="87" height="34" as="geometry">
            <mxRectangle width="87" height="34" as="alternateBounds" />
          </mxGeometry>
        </mxCell>
        <mxCell id="pqIIrUzcT10Te7JTkzrq-123" value="DiaChi" style="shape=partialRectangle;html=1;whiteSpace=wrap;connectable=0;strokeColor=inherit;overflow=hidden;fillColor=none;top=0;left=0;bottom=0;right=0;pointerEvents=1;fontSize=16;" parent="pqIIrUzcT10Te7JTkzrq-119" vertex="1">
          <mxGeometry x="261" width="86" height="34" as="geometry">
            <mxRectangle width="86" height="34" as="alternateBounds" />
          </mxGeometry>
        </mxCell>
        <mxCell id="pqIIrUzcT10Te7JTkzrq-130" value="" style="shape=table;startSize=0;container=1;collapsible=0;childLayout=tableLayout;fontSize=16;" parent="1" vertex="1">
          <mxGeometry x="-102" y="3161" width="174" height="40" as="geometry" />
        </mxCell>
        <mxCell id="pqIIrUzcT10Te7JTkzrq-131" value="" style="shape=tableRow;horizontal=0;startSize=0;swimlaneHead=0;swimlaneBody=0;strokeColor=inherit;top=0;left=0;bottom=0;right=0;collapsible=0;dropTarget=0;fillColor=none;points=[[0,0.5],[1,0.5]];portConstraint=eastwest;fontSize=16;" parent="pqIIrUzcT10Te7JTkzrq-130" vertex="1">
          <mxGeometry width="174" height="40" as="geometry" />
        </mxCell>
        <mxCell id="pqIIrUzcT10Te7JTkzrq-132" value="&lt;u style=&quot;border-color: var(--border-color);&quot;&gt;MaSinhVien&lt;/u&gt;" style="shape=partialRectangle;html=1;whiteSpace=wrap;connectable=0;strokeColor=inherit;overflow=hidden;fillColor=none;top=0;left=0;bottom=0;right=0;pointerEvents=1;fontSize=16;" parent="pqIIrUzcT10Te7JTkzrq-131" vertex="1">
          <mxGeometry width="119" height="40" as="geometry">
            <mxRectangle width="119" height="40" as="alternateBounds" />
          </mxGeometry>
        </mxCell>
        <mxCell id="pqIIrUzcT10Te7JTkzrq-133" value="Email" style="shape=partialRectangle;html=1;whiteSpace=wrap;connectable=0;strokeColor=inherit;overflow=hidden;fillColor=none;top=0;left=0;bottom=0;right=0;pointerEvents=1;fontSize=16;" parent="pqIIrUzcT10Te7JTkzrq-131" vertex="1">
          <mxGeometry x="119" width="55" height="40" as="geometry">
            <mxRectangle width="55" height="40" as="alternateBounds" />
          </mxGeometry>
        </mxCell>
        <mxCell id="pqIIrUzcT10Te7JTkzrq-135" value="&lt;u style=&quot;border-color: var(--border-color);&quot;&gt;MaSinhVien&lt;/u&gt;" style="rounded=0;whiteSpace=wrap;html=1;fontSize=16;" parent="1" vertex="1">
          <mxGeometry x="-161" y="3221" width="107" height="41" as="geometry" />
        </mxCell>
        <mxCell id="pqIIrUzcT10Te7JTkzrq-136" value="Ten" style="rounded=0;whiteSpace=wrap;html=1;fontSize=16;" parent="1" vertex="1">
          <mxGeometry x="-55" y="3221" width="42" height="41" as="geometry" />
        </mxCell>
        <mxCell id="pqIIrUzcT10Te7JTkzrq-137" value="NgaySinh" style="rounded=0;whiteSpace=wrap;html=1;fontSize=16;" parent="1" vertex="1">
          <mxGeometry x="-13" y="3221" width="85" height="41" as="geometry" />
        </mxCell>
        <mxCell id="pqIIrUzcT10Te7JTkzrq-138" value="DiaChi" style="rounded=0;whiteSpace=wrap;html=1;fontSize=16;" parent="1" vertex="1">
          <mxGeometry x="72" y="3221" width="72" height="41" as="geometry" />
        </mxCell>
        <mxCell id="pqIIrUzcT10Te7JTkzrq-141" style="edgeStyle=orthogonalEdgeStyle;rounded=0;orthogonalLoop=1;jettySize=auto;html=1;entryX=0.5;entryY=1;entryDx=0;entryDy=0;fontSize=12;startSize=8;endSize=8;exitX=0.5;exitY=0;exitDx=0;exitDy=0;" parent="1" source="pqIIrUzcT10Te7JTkzrq-139" target="pqIIrUzcT10Te7JTkzrq-135" edge="1">
          <mxGeometry relative="1" as="geometry" />
        </mxCell>
        <mxCell id="pqIIrUzcT10Te7JTkzrq-139" value="&lt;u style=&quot;border-color: var(--border-color);&quot;&gt;MaSinhVien&lt;/u&gt;" style="rounded=0;whiteSpace=wrap;html=1;fontSize=16;" parent="1" vertex="1">
          <mxGeometry x="-106" y="3308" width="107" height="41" as="geometry" />
        </mxCell>
        <mxCell id="pqIIrUzcT10Te7JTkzrq-140" value="&lt;u&gt;Email&lt;/u&gt;" style="rounded=0;whiteSpace=wrap;html=1;fontSize=16;" parent="1" vertex="1">
          <mxGeometry y="3308" width="66" height="41" as="geometry" />
        </mxCell>
        <mxCell id="pqIIrUzcT10Te7JTkzrq-142" style="edgeStyle=none;curved=1;rounded=0;orthogonalLoop=1;jettySize=auto;html=1;exitX=1;exitY=0.5;exitDx=0;exitDy=0;fontSize=12;startSize=8;endSize=8;endArrow=none;endFill=0;entryX=0;entryY=0.5;entryDx=0;entryDy=0;" parent="1" source="pqIIrUzcT10Te7JTkzrq-144" target="pqIIrUzcT10Te7JTkzrq-152" edge="1">
          <mxGeometry relative="1" as="geometry" />
        </mxCell>
        <mxCell id="pqIIrUzcT10Te7JTkzrq-143" style="edgeStyle=none;curved=1;rounded=0;orthogonalLoop=1;jettySize=auto;html=1;exitX=0.5;exitY=0;exitDx=0;exitDy=0;fontSize=12;startSize=8;endSize=8;endArrow=none;endFill=0;entryX=0.5;entryY=1;entryDx=0;entryDy=0;" parent="1" source="pqIIrUzcT10Te7JTkzrq-144" target="pqIIrUzcT10Te7JTkzrq-151" edge="1">
          <mxGeometry relative="1" as="geometry" />
        </mxCell>
        <mxCell id="pqIIrUzcT10Te7JTkzrq-144" value="Khách Hàng" style="whiteSpace=wrap;html=1;align=center;fontSize=16;" parent="1" vertex="1">
          <mxGeometry x="-65" y="3474" width="100" height="40" as="geometry" />
        </mxCell>
        <mxCell id="pqIIrUzcT10Te7JTkzrq-145" style="rounded=0;orthogonalLoop=1;jettySize=auto;html=1;exitX=1;exitY=0.5;exitDx=0;exitDy=0;fontSize=12;startSize=8;endSize=8;endArrow=none;endFill=0;entryX=0;entryY=0.5;entryDx=0;entryDy=0;" parent="1" source="pqIIrUzcT10Te7JTkzrq-146" target="pqIIrUzcT10Te7JTkzrq-144" edge="1">
          <mxGeometry relative="1" as="geometry" />
        </mxCell>
        <mxCell id="pqIIrUzcT10Te7JTkzrq-146" value="Số điện thoại" style="ellipse;whiteSpace=wrap;html=1;align=center;fontSize=16;" parent="1" vertex="1">
          <mxGeometry x="-193" y="3431" width="100" height="40" as="geometry" />
        </mxCell>
        <mxCell id="pqIIrUzcT10Te7JTkzrq-147" value="Mã khách hàng" style="ellipse;whiteSpace=wrap;html=1;align=center;fontStyle=4;fontSize=16;" parent="1" vertex="1">
          <mxGeometry x="-191" y="3489" width="100" height="40" as="geometry" />
        </mxCell>
        <mxCell id="pqIIrUzcT10Te7JTkzrq-148" value="Ngày Sinh" style="ellipse;whiteSpace=wrap;html=1;align=center;fontSize=16;" parent="1" vertex="1">
          <mxGeometry x="-116" y="3388" width="100" height="40" as="geometry" />
        </mxCell>
        <mxCell id="pqIIrUzcT10Te7JTkzrq-149" style="rounded=0;orthogonalLoop=1;jettySize=auto;html=1;exitX=0.5;exitY=1;exitDx=0;exitDy=0;fontSize=12;startSize=8;endSize=8;endArrow=none;endFill=0;entryX=0.5;entryY=0;entryDx=0;entryDy=0;" parent="1" source="pqIIrUzcT10Te7JTkzrq-148" target="pqIIrUzcT10Te7JTkzrq-144" edge="1">
          <mxGeometry relative="1" as="geometry">
            <mxPoint x="-123" y="3512" as="sourcePoint" />
            <mxPoint x="-25" y="3516" as="targetPoint" />
          </mxGeometry>
        </mxCell>
        <mxCell id="pqIIrUzcT10Te7JTkzrq-150" style="rounded=0;orthogonalLoop=1;jettySize=auto;html=1;exitX=0;exitY=0.5;exitDx=0;exitDy=0;fontSize=12;startSize=8;endSize=8;endArrow=none;endFill=0;entryX=1;entryY=0.5;entryDx=0;entryDy=0;" parent="1" source="pqIIrUzcT10Te7JTkzrq-144" target="pqIIrUzcT10Te7JTkzrq-147" edge="1">
          <mxGeometry relative="1" as="geometry">
            <mxPoint x="-108" y="3431" as="sourcePoint" />
            <mxPoint x="5" y="3538" as="targetPoint" />
          </mxGeometry>
        </mxCell>
        <mxCell id="pqIIrUzcT10Te7JTkzrq-151" value="Họ và tên" style="ellipse;whiteSpace=wrap;html=1;align=center;fontSize=16;" parent="1" vertex="1">
          <mxGeometry x="-7" y="3388" width="100" height="40" as="geometry" />
        </mxCell>
        <mxCell id="pqIIrUzcT10Te7JTkzrq-152" value="Email" style="ellipse;shape=doubleEllipse;margin=3;whiteSpace=wrap;html=1;align=center;fontSize=16;" parent="1" vertex="1">
          <mxGeometry x="63" y="3461" width="100" height="40" as="geometry" />
        </mxCell>
        <mxCell id="pqIIrUzcT10Te7JTkzrq-153" value="Số nhà" style="ellipse;whiteSpace=wrap;html=1;align=center;fontSize=16;" parent="1" vertex="1">
          <mxGeometry x="168" y="3382" width="100" height="40" as="geometry" />
        </mxCell>
        <mxCell id="pqIIrUzcT10Te7JTkzrq-154" value="Đường" style="ellipse;whiteSpace=wrap;html=1;align=center;fontSize=16;" parent="1" vertex="1">
          <mxGeometry x="279" y="3367" width="100" height="40" as="geometry" />
        </mxCell>
        <mxCell id="pqIIrUzcT10Te7JTkzrq-155" value="Thành phố" style="ellipse;whiteSpace=wrap;html=1;align=center;fontSize=16;" parent="1" vertex="1">
          <mxGeometry x="384" y="3384" width="100" height="40" as="geometry" />
        </mxCell>
        <mxCell id="pqIIrUzcT10Te7JTkzrq-156" style="edgeStyle=none;curved=1;rounded=0;orthogonalLoop=1;jettySize=auto;html=1;exitX=0;exitY=0;exitDx=0;exitDy=0;entryX=1;entryY=1;entryDx=0;entryDy=0;fontSize=12;startSize=8;endSize=8;endArrow=none;endFill=0;" parent="1" source="pqIIrUzcT10Te7JTkzrq-157" target="pqIIrUzcT10Te7JTkzrq-153" edge="1">
          <mxGeometry relative="1" as="geometry" />
        </mxCell>
        <mxCell id="pqIIrUzcT10Te7JTkzrq-157" value="Địa Chỉ" style="ellipse;whiteSpace=wrap;html=1;align=center;dashed=1;fontSize=16;" parent="1" vertex="1">
          <mxGeometry x="279" y="3442" width="100" height="40" as="geometry" />
        </mxCell>
        <mxCell id="pqIIrUzcT10Te7JTkzrq-158" style="edgeStyle=none;curved=1;rounded=0;orthogonalLoop=1;jettySize=auto;html=1;exitX=0.5;exitY=0;exitDx=0;exitDy=0;fontSize=12;startSize=8;endSize=8;endArrow=none;endFill=0;" parent="1" source="pqIIrUzcT10Te7JTkzrq-157" target="pqIIrUzcT10Te7JTkzrq-154" edge="1">
          <mxGeometry relative="1" as="geometry">
            <mxPoint x="301" y="3458" as="sourcePoint" />
            <mxPoint x="252" y="3428" as="targetPoint" />
          </mxGeometry>
        </mxCell>
        <mxCell id="pqIIrUzcT10Te7JTkzrq-159" style="edgeStyle=none;curved=1;rounded=0;orthogonalLoop=1;jettySize=auto;html=1;exitX=1;exitY=0;exitDx=0;exitDy=0;fontSize=12;startSize=8;endSize=8;endArrow=none;endFill=0;" parent="1" source="pqIIrUzcT10Te7JTkzrq-157" target="pqIIrUzcT10Te7JTkzrq-155" edge="1">
          <mxGeometry relative="1" as="geometry">
            <mxPoint x="311" y="3468" as="sourcePoint" />
            <mxPoint x="262" y="3438" as="targetPoint" />
          </mxGeometry>
        </mxCell>
        <mxCell id="pqIIrUzcT10Te7JTkzrq-187" style="edgeStyle=none;curved=1;rounded=0;orthogonalLoop=1;jettySize=auto;html=1;exitX=1;exitY=0.5;exitDx=0;exitDy=0;entryX=0;entryY=0.5;entryDx=0;entryDy=0;fontSize=12;startSize=8;endSize=8;endArrow=ERzeroToMany;endFill=0;startArrow=ERmandOne;startFill=0;" parent="1" source="pqIIrUzcT10Te7JTkzrq-183" target="pqIIrUzcT10Te7JTkzrq-185" edge="1">
          <mxGeometry relative="1" as="geometry" />
        </mxCell>
        <mxCell id="pqIIrUzcT10Te7JTkzrq-183" value="Khách Hàng" style="whiteSpace=wrap;html=1;align=center;fontSize=16;" parent="1" vertex="1">
          <mxGeometry x="-157" y="4053" width="100" height="40" as="geometry" />
        </mxCell>
        <mxCell id="pqIIrUzcT10Te7JTkzrq-184" value="Sản phẩm" style="whiteSpace=wrap;html=1;align=center;fontSize=16;" parent="1" vertex="1">
          <mxGeometry x="116.35" y="4229" width="85.3" height="40" as="geometry" />
        </mxCell>
        <mxCell id="pqIIrUzcT10Te7JTkzrq-188" style="edgeStyle=none;curved=1;rounded=0;orthogonalLoop=1;jettySize=auto;html=1;exitX=0.5;exitY=1;exitDx=0;exitDy=0;fontSize=12;startSize=8;endSize=8;endArrow=ERoneToMany;endFill=0;startArrow=none;startFill=0;" parent="1" source="pqIIrUzcT10Te7JTkzrq-189" target="pqIIrUzcT10Te7JTkzrq-184" edge="1">
          <mxGeometry relative="1" as="geometry" />
        </mxCell>
        <mxCell id="pqIIrUzcT10Te7JTkzrq-198" style="edgeStyle=none;curved=1;rounded=0;orthogonalLoop=1;jettySize=auto;html=1;exitX=1;exitY=0.5;exitDx=0;exitDy=0;entryX=0;entryY=0.5;entryDx=0;entryDy=0;fontSize=12;startSize=8;endSize=8;endArrow=none;endFill=0;" parent="1" source="pqIIrUzcT10Te7JTkzrq-185" target="pqIIrUzcT10Te7JTkzrq-197" edge="1">
          <mxGeometry relative="1" as="geometry" />
        </mxCell>
        <mxCell id="pqIIrUzcT10Te7JTkzrq-199" style="edgeStyle=none;curved=1;rounded=0;orthogonalLoop=1;jettySize=auto;html=1;exitX=1;exitY=0.5;exitDx=0;exitDy=0;entryX=0;entryY=1;entryDx=0;entryDy=0;fontSize=12;startSize=8;endSize=8;endArrow=none;endFill=0;" parent="1" source="pqIIrUzcT10Te7JTkzrq-185" target="pqIIrUzcT10Te7JTkzrq-196" edge="1">
          <mxGeometry relative="1" as="geometry" />
        </mxCell>
        <mxCell id="pqIIrUzcT10Te7JTkzrq-200" style="edgeStyle=none;curved=1;rounded=0;orthogonalLoop=1;jettySize=auto;html=1;exitX=0.5;exitY=0;exitDx=0;exitDy=0;entryX=0.5;entryY=1;entryDx=0;entryDy=0;fontSize=12;startSize=8;endSize=8;endArrow=none;endFill=0;" parent="1" source="pqIIrUzcT10Te7JTkzrq-185" target="pqIIrUzcT10Te7JTkzrq-195" edge="1">
          <mxGeometry relative="1" as="geometry" />
        </mxCell>
        <mxCell id="pqIIrUzcT10Te7JTkzrq-185" value="Đơn Hàng" style="shape=ext;margin=3;double=1;whiteSpace=wrap;html=1;align=center;fontSize=16;" parent="1" vertex="1">
          <mxGeometry x="111" y="4053" width="96" height="40" as="geometry" />
        </mxCell>
        <mxCell id="pqIIrUzcT10Te7JTkzrq-186" value="Đặt" style="rhombus;whiteSpace=wrap;html=1;fontSize=16;" parent="1" vertex="1">
          <mxGeometry x="-17" y="4033" width="80" height="80" as="geometry" />
        </mxCell>
        <mxCell id="pqIIrUzcT10Te7JTkzrq-190" value="" style="edgeStyle=none;curved=1;rounded=0;orthogonalLoop=1;jettySize=auto;html=1;exitX=0.5;exitY=1;exitDx=0;exitDy=0;entryX=0.5;entryY=0;entryDx=0;entryDy=0;fontSize=12;startSize=8;endSize=8;endArrow=none;endFill=0;startArrow=ERzeroToMany;startFill=0;" parent="1" source="pqIIrUzcT10Te7JTkzrq-185" target="pqIIrUzcT10Te7JTkzrq-189" edge="1">
          <mxGeometry relative="1" as="geometry">
            <mxPoint x="174" y="4073" as="sourcePoint" />
            <mxPoint x="372" y="4073" as="targetPoint" />
          </mxGeometry>
        </mxCell>
        <mxCell id="pqIIrUzcT10Te7JTkzrq-189" value="Chứa" style="rhombus;whiteSpace=wrap;html=1;fontSize=16;" parent="1" vertex="1">
          <mxGeometry x="119" y="4122" width="80" height="80" as="geometry" />
        </mxCell>
        <mxCell id="pqIIrUzcT10Te7JTkzrq-162" value="Khách Hàng" style="whiteSpace=wrap;html=1;align=center;fontSize=16;" parent="1" vertex="1">
          <mxGeometry x="11.850771208226263" y="3759.435294117647" width="118.43187660668383" height="47.37254901960783" as="geometry" />
        </mxCell>
        <mxCell id="pqIIrUzcT10Te7JTkzrq-163" style="rounded=0;orthogonalLoop=1;jettySize=auto;html=1;exitX=1;exitY=0.5;exitDx=0;exitDy=0;fontSize=12;startSize=8;endSize=8;endArrow=none;endFill=0;entryX=0;entryY=0.5;entryDx=0;entryDy=0;" parent="1" source="pqIIrUzcT10Te7JTkzrq-164" target="pqIIrUzcT10Te7JTkzrq-162" edge="1">
          <mxGeometry relative="1" as="geometry" />
        </mxCell>
        <mxCell id="pqIIrUzcT10Te7JTkzrq-164" value="Họ và tên" style="ellipse;whiteSpace=wrap;html=1;align=center;fontSize=16;" parent="1" vertex="1">
          <mxGeometry x="-169.35" y="3716.8" width="118.43187660668383" height="47.37254901960783" as="geometry" />
        </mxCell>
        <mxCell id="pqIIrUzcT10Te7JTkzrq-165" value="Mã khách hàng" style="ellipse;whiteSpace=wrap;html=1;align=center;fontStyle=4;fontSize=16;" parent="1" vertex="1">
          <mxGeometry x="-161.05976863753213" y="3785.4901960784314" width="118.43187660668383" height="47.37254901960783" as="geometry" />
        </mxCell>
        <mxCell id="pqIIrUzcT10Te7JTkzrq-166" value="Ngày Sinh" style="ellipse;whiteSpace=wrap;html=1;align=center;fontSize=16;" parent="1" vertex="1">
          <mxGeometry x="169.36516709511577" y="3716.8" width="118.43187660668383" height="47.37254901960783" as="geometry" />
        </mxCell>
        <mxCell id="pqIIrUzcT10Te7JTkzrq-167" style="rounded=0;orthogonalLoop=1;jettySize=auto;html=1;exitX=0.019;exitY=0.65;exitDx=0;exitDy=0;fontSize=12;startSize=8;endSize=8;endArrow=none;endFill=0;entryX=1;entryY=0.5;entryDx=0;entryDy=0;exitPerimeter=0;" parent="1" source="pqIIrUzcT10Te7JTkzrq-166" target="pqIIrUzcT10Te7JTkzrq-162" edge="1">
          <mxGeometry relative="1" as="geometry">
            <mxPoint x="-58.024035989717206" y="3819.835294117647" as="sourcePoint" />
            <mxPoint x="58.039203084832934" y="3824.572549019608" as="targetPoint" />
          </mxGeometry>
        </mxCell>
        <mxCell id="pqIIrUzcT10Te7JTkzrq-168" style="rounded=0;orthogonalLoop=1;jettySize=auto;html=1;exitX=0;exitY=0.5;exitDx=0;exitDy=0;fontSize=12;startSize=8;endSize=8;endArrow=none;endFill=0;entryX=1;entryY=0.5;entryDx=0;entryDy=0;" parent="1" source="pqIIrUzcT10Te7JTkzrq-162" target="pqIIrUzcT10Te7JTkzrq-165" edge="1">
          <mxGeometry relative="1" as="geometry">
            <mxPoint x="-40.259254498714625" y="3723.9058823529413" as="sourcePoint" />
            <mxPoint x="93.5687660668381" y="3850.627450980392" as="targetPoint" />
          </mxGeometry>
        </mxCell>
        <mxCell id="pqIIrUzcT10Te7JTkzrq-169" style="rounded=0;orthogonalLoop=1;jettySize=auto;html=1;fontSize=12;startSize=8;endSize=8;endArrow=none;endFill=0;entryX=0.5;entryY=0;entryDx=0;entryDy=0;exitX=0.5;exitY=1;exitDx=0;exitDy=0;" parent="1" source="pqIIrUzcT10Te7JTkzrq-179" target="pqIIrUzcT10Te7JTkzrq-162" edge="1">
          <mxGeometry relative="1" as="geometry">
            <mxPoint x="68.68611622104754" y="3714.4267300025776" as="sourcePoint" />
            <mxPoint x="37.90578406169669" y="3834.0470588235294" as="targetPoint" />
          </mxGeometry>
        </mxCell>
        <mxCell id="pqIIrUzcT10Te7JTkzrq-170" value="Đường" style="ellipse;whiteSpace=wrap;html=1;align=center;fontSize=16;" parent="1" vertex="1">
          <mxGeometry x="-119.60861182519278" y="3613.764705882353" width="118.43187660668383" height="47.37254901960783" as="geometry" />
        </mxCell>
        <mxCell id="pqIIrUzcT10Te7JTkzrq-171" value="Quận" style="ellipse;whiteSpace=wrap;html=1;align=center;fontSize=16;" parent="1" vertex="1">
          <mxGeometry x="11.850771208226263" y="3596" width="118.43187660668383" height="47.37254901960783" as="geometry" />
        </mxCell>
        <mxCell id="pqIIrUzcT10Te7JTkzrq-172" value="Thành phố" style="ellipse;whiteSpace=wrap;html=1;align=center;fontSize=16;" parent="1" vertex="1">
          <mxGeometry x="136.2042416452443" y="3616.133333333333" width="118.43187660668383" height="47.37254901960783" as="geometry" />
        </mxCell>
        <mxCell id="pqIIrUzcT10Te7JTkzrq-174" value="Số điện thoại" style="ellipse;shape=doubleEllipse;margin=3;whiteSpace=wrap;html=1;align=center;fontSize=16;" parent="1" vertex="1">
          <mxGeometry x="13.035089974293072" y="3850.627450980392" width="118.43187660668383" height="47.37254901960783" as="geometry" />
        </mxCell>
        <mxCell id="pqIIrUzcT10Te7JTkzrq-160" style="edgeStyle=none;curved=1;rounded=0;orthogonalLoop=1;jettySize=auto;html=1;exitX=0.5;exitY=1;exitDx=0;exitDy=0;fontSize=12;startSize=8;endSize=8;endArrow=none;endFill=0;" parent="1" source="pqIIrUzcT10Te7JTkzrq-162" target="pqIIrUzcT10Te7JTkzrq-174" edge="1">
          <mxGeometry relative="1" as="geometry" />
        </mxCell>
        <mxCell id="pqIIrUzcT10Te7JTkzrq-175" style="edgeStyle=none;curved=1;rounded=0;orthogonalLoop=1;jettySize=auto;html=1;exitX=0;exitY=0.5;exitDx=0;exitDy=0;fontSize=12;startSize=8;endSize=8;endArrow=none;endFill=0;entryX=1;entryY=0.5;entryDx=0;entryDy=0;" parent="1" source="pqIIrUzcT10Te7JTkzrq-177" target="pqIIrUzcT10Te7JTkzrq-162" edge="1">
          <mxGeometry relative="1" as="geometry" />
        </mxCell>
        <mxCell id="pqIIrUzcT10Te7JTkzrq-176" style="edgeStyle=none;curved=1;rounded=0;orthogonalLoop=1;jettySize=auto;html=1;exitX=0.5;exitY=0;exitDx=0;exitDy=0;fontSize=12;startSize=8;endSize=8;" parent="1" source="pqIIrUzcT10Te7JTkzrq-177" target="pqIIrUzcT10Te7JTkzrq-166" edge="1">
          <mxGeometry relative="1" as="geometry" />
        </mxCell>
        <mxCell id="pqIIrUzcT10Te7JTkzrq-177" value="Tuổi" style="ellipse;whiteSpace=wrap;html=1;align=center;dashed=1;fontSize=16;" parent="1" vertex="1">
          <mxGeometry x="172.91812339331628" y="3793.7803921568625" width="118.43187660668383" height="47.37254901960783" as="geometry" />
        </mxCell>
        <mxCell id="pqIIrUzcT10Te7JTkzrq-178" style="edgeStyle=none;curved=1;rounded=0;orthogonalLoop=1;jettySize=auto;html=1;exitX=0;exitY=0;exitDx=0;exitDy=0;entryX=1;entryY=1;entryDx=0;entryDy=0;fontSize=12;startSize=8;endSize=8;endArrow=none;endFill=0;" parent="1" source="pqIIrUzcT10Te7JTkzrq-179" target="pqIIrUzcT10Te7JTkzrq-170" edge="1">
          <mxGeometry relative="1" as="geometry" />
        </mxCell>
        <mxCell id="pqIIrUzcT10Te7JTkzrq-179" value="Địa Chỉ" style="ellipse;whiteSpace=wrap;html=1;align=center;dashed=1;fontSize=16;" parent="1" vertex="1">
          <mxGeometry x="11.850771208226263" y="3684.823529411765" width="118.43187660668383" height="47.37254901960783" as="geometry" />
        </mxCell>
        <mxCell id="pqIIrUzcT10Te7JTkzrq-180" style="edgeStyle=none;curved=1;rounded=0;orthogonalLoop=1;jettySize=auto;html=1;exitX=0.5;exitY=0;exitDx=0;exitDy=0;fontSize=12;startSize=8;endSize=8;endArrow=none;endFill=0;" parent="1" source="pqIIrUzcT10Te7JTkzrq-179" target="pqIIrUzcT10Te7JTkzrq-171" edge="1">
          <mxGeometry relative="1" as="geometry">
            <mxPoint x="37.90578406169669" y="3703.772549019608" as="sourcePoint" />
            <mxPoint x="-20.125835475578356" y="3668.2431372549017" as="targetPoint" />
          </mxGeometry>
        </mxCell>
        <mxCell id="pqIIrUzcT10Te7JTkzrq-181" style="edgeStyle=none;curved=1;rounded=0;orthogonalLoop=1;jettySize=auto;html=1;exitX=1;exitY=0;exitDx=0;exitDy=0;fontSize=12;startSize=8;endSize=8;endArrow=none;endFill=0;" parent="1" source="pqIIrUzcT10Te7JTkzrq-179" target="pqIIrUzcT10Te7JTkzrq-172" edge="1">
          <mxGeometry relative="1" as="geometry">
            <mxPoint x="49.74897172236507" y="3715.6156862745097" as="sourcePoint" />
            <mxPoint x="-8.282647814909978" y="3680.086274509804" as="targetPoint" />
          </mxGeometry>
        </mxCell>
        <mxCell id="pqIIrUzcT10Te7JTkzrq-193" style="edgeStyle=none;curved=1;rounded=0;orthogonalLoop=1;jettySize=auto;html=1;exitX=1;exitY=1;exitDx=0;exitDy=0;entryX=0.5;entryY=0;entryDx=0;entryDy=0;fontSize=12;startSize=8;endSize=8;endArrow=none;endFill=0;" parent="1" source="pqIIrUzcT10Te7JTkzrq-191" target="pqIIrUzcT10Te7JTkzrq-183" edge="1">
          <mxGeometry relative="1" as="geometry" />
        </mxCell>
        <mxCell id="pqIIrUzcT10Te7JTkzrq-191" value="Mã khách hàng" style="ellipse;whiteSpace=wrap;html=1;align=center;fontStyle=4;fontSize=16;" parent="1" vertex="1">
          <mxGeometry x="-254.99976863753213" y="3960.000196078431" width="118.43187660668383" height="47.37254901960783" as="geometry" />
        </mxCell>
        <mxCell id="pqIIrUzcT10Te7JTkzrq-194" style="edgeStyle=none;curved=1;rounded=0;orthogonalLoop=1;jettySize=auto;html=1;exitX=0.5;exitY=1;exitDx=0;exitDy=0;entryX=0.5;entryY=0;entryDx=0;entryDy=0;fontSize=12;startSize=8;endSize=8;endArrow=none;endFill=0;" parent="1" source="pqIIrUzcT10Te7JTkzrq-192" target="pqIIrUzcT10Te7JTkzrq-183" edge="1">
          <mxGeometry relative="1" as="geometry" />
        </mxCell>
        <mxCell id="pqIIrUzcT10Te7JTkzrq-192" value="Họ và tên" style="ellipse;whiteSpace=wrap;html=1;align=center;fontSize=16;" parent="1" vertex="1">
          <mxGeometry x="-127.22" y="3960" width="118.43187660668383" height="47.37254901960783" as="geometry" />
        </mxCell>
        <mxCell id="pqIIrUzcT10Te7JTkzrq-195" value="Số lượng" style="ellipse;whiteSpace=wrap;html=1;align=center;fontSize=16;" parent="1" vertex="1">
          <mxGeometry x="108" y="3969" width="118.43187660668383" height="47.37254901960783" as="geometry" />
        </mxCell>
        <mxCell id="pqIIrUzcT10Te7JTkzrq-196" value="Đơn giá" style="ellipse;whiteSpace=wrap;html=1;align=center;fontSize=16;" parent="1" vertex="1">
          <mxGeometry x="238" y="3998" width="118.43187660668383" height="47.37254901960783" as="geometry" />
        </mxCell>
        <mxCell id="pqIIrUzcT10Te7JTkzrq-197" value="Ngày mua" style="ellipse;whiteSpace=wrap;html=1;align=center;fontSize=16;" parent="1" vertex="1">
          <mxGeometry x="238" y="4056" width="118.43187660668383" height="47.37254901960783" as="geometry" />
        </mxCell>
        <mxCell id="pqIIrUzcT10Te7JTkzrq-204" style="edgeStyle=none;curved=1;rounded=0;orthogonalLoop=1;jettySize=auto;html=1;exitX=1;exitY=0.5;exitDx=0;exitDy=0;entryX=0;entryY=0.5;entryDx=0;entryDy=0;fontSize=12;startSize=8;endSize=8;endArrow=none;endFill=0;" parent="1" source="pqIIrUzcT10Te7JTkzrq-201" target="pqIIrUzcT10Te7JTkzrq-184" edge="1">
          <mxGeometry relative="1" as="geometry" />
        </mxCell>
        <mxCell id="pqIIrUzcT10Te7JTkzrq-201" value="Mã Sản Phẩm" style="ellipse;whiteSpace=wrap;html=1;align=center;fontStyle=4;fontSize=16;" parent="1" vertex="1">
          <mxGeometry x="-39.71976863753213" y="4252.000196078431" width="118.43187660668383" height="47.37254901960783" as="geometry" />
        </mxCell>
        <mxCell id="pqIIrUzcT10Te7JTkzrq-203" style="edgeStyle=none;curved=1;rounded=0;orthogonalLoop=1;jettySize=auto;html=1;exitX=1;exitY=0.5;exitDx=0;exitDy=0;entryX=0;entryY=0.5;entryDx=0;entryDy=0;fontSize=12;startSize=8;endSize=8;endArrow=none;endFill=0;" parent="1" source="pqIIrUzcT10Te7JTkzrq-202" target="pqIIrUzcT10Te7JTkzrq-184" edge="1">
          <mxGeometry relative="1" as="geometry" />
        </mxCell>
        <mxCell id="pqIIrUzcT10Te7JTkzrq-202" value="Số lượng kho" style="ellipse;whiteSpace=wrap;html=1;align=center;fontSize=16;" parent="1" vertex="1">
          <mxGeometry x="-48.21999999999998" y="4193" width="118.43187660668383" height="47.37254901960783" as="geometry" />
        </mxCell>
        <mxCell id="lPqSWDgFiMi_s8-mkcEq-1" style="edgeStyle=none;curved=1;rounded=0;orthogonalLoop=1;jettySize=auto;html=1;exitX=1;exitY=0.5;exitDx=0;exitDy=0;fontSize=12;startSize=8;endSize=8;startArrow=ERzeroToOne;startFill=0;endArrow=ERmandOne;endFill=0;" edge="1" parent="1" source="lPqSWDgFiMi_s8-mkcEq-3">
          <mxGeometry relative="1" as="geometry">
            <mxPoint x="39.99999999999999" y="4418" as="targetPoint" />
          </mxGeometry>
        </mxCell>
        <mxCell id="lPqSWDgFiMi_s8-mkcEq-2" value="Nhân viên" style="whiteSpace=wrap;html=1;align=center;fontSize=16;" vertex="1" parent="1">
          <mxGeometry x="-304.35" y="4398" width="135" height="40" as="geometry" />
        </mxCell>
        <mxCell id="lPqSWDgFiMi_s8-mkcEq-5" value="" style="edgeStyle=none;curved=1;rounded=0;orthogonalLoop=1;jettySize=auto;html=1;exitX=1;exitY=0.5;exitDx=0;exitDy=0;fontSize=12;startSize=8;endSize=8;startArrow=ERmandOne;startFill=0;endArrow=ERmandOne;endFill=0;" edge="1" parent="1" source="lPqSWDgFiMi_s8-mkcEq-2" target="lPqSWDgFiMi_s8-mkcEq-3">
          <mxGeometry relative="1" as="geometry">
            <mxPoint x="39.99999999999999" y="4418" as="targetPoint" />
            <mxPoint x="-169" y="4418" as="sourcePoint" />
            <Array as="points">
              <mxPoint x="-63" y="4418" />
            </Array>
          </mxGeometry>
        </mxCell>
        <mxCell id="lPqSWDgFiMi_s8-mkcEq-3" value="Thẻ Nhân viên" style="whiteSpace=wrap;html=1;align=center;fontSize=16;" vertex="1" parent="1">
          <mxGeometry x="11.849999999999994" y="4400" width="135" height="40" as="geometry" />
        </mxCell>
        <mxCell id="lPqSWDgFiMi_s8-mkcEq-4" value="Được&lt;br&gt;cấp" style="rhombus;whiteSpace=wrap;html=1;fontSize=16;" vertex="1" parent="1">
          <mxGeometry x="-117" y="4378" width="80" height="80" as="geometry" />
        </mxCell>
        <mxCell id="lPqSWDgFiMi_s8-mkcEq-6" value="&lt;u style=&quot;border-color: var(--border-color);&quot;&gt;Mã Nhân Viên&lt;/u&gt;" style="rounded=0;whiteSpace=wrap;html=1;fontSize=16;" vertex="1" parent="1">
          <mxGeometry x="-328.26" y="4692" width="123.26" height="41" as="geometry" />
        </mxCell>
        <mxCell id="lPqSWDgFiMi_s8-mkcEq-7" value="Tên Nhân Viên" style="rounded=0;whiteSpace=wrap;html=1;fontSize=16;" vertex="1" parent="1">
          <mxGeometry x="-205.48" y="4692" width="124.96" height="41" as="geometry" />
        </mxCell>
        <mxCell id="lPqSWDgFiMi_s8-mkcEq-13" style="edgeStyle=orthogonalEdgeStyle;rounded=0;orthogonalLoop=1;jettySize=auto;html=1;exitX=0.5;exitY=0;exitDx=0;exitDy=0;entryX=0.5;entryY=1;entryDx=0;entryDy=0;" edge="1" parent="1" source="lPqSWDgFiMi_s8-mkcEq-9" target="lPqSWDgFiMi_s8-mkcEq-11">
          <mxGeometry relative="1" as="geometry" />
        </mxCell>
        <mxCell id="lPqSWDgFiMi_s8-mkcEq-9" value="Mã Thẻ Nhân Viên" style="rounded=0;whiteSpace=wrap;html=1;fontSize=16;" vertex="1" parent="1">
          <mxGeometry x="-80.52" y="4692" width="163.3" height="41" as="geometry" />
        </mxCell>
        <mxCell id="lPqSWDgFiMi_s8-mkcEq-11" value="&lt;u style=&quot;border-color: var(--border-color);&quot;&gt;Mã Thẻ Nhân Viên&lt;/u&gt;" style="rounded=0;whiteSpace=wrap;html=1;fontSize=16;" vertex="1" parent="1">
          <mxGeometry x="-307" y="4606" width="142.04" height="41" as="geometry" />
        </mxCell>
        <mxCell id="lPqSWDgFiMi_s8-mkcEq-12" value="Loại Thẻ" style="rounded=0;whiteSpace=wrap;html=1;fontSize=16;" vertex="1" parent="1">
          <mxGeometry x="-165.96" y="4606" width="66" height="41" as="geometry" />
        </mxCell>
        <mxCell id="lPqSWDgFiMi_s8-mkcEq-16" value="&lt;div style=&quot;text-align: center;&quot;&gt;&lt;br&gt;&lt;/div&gt;" style="text;whiteSpace=wrap;html=1;" vertex="1" parent="1">
          <mxGeometry x="-239.22" y="3224" width="76" height="41" as="geometry" />
        </mxCell>
        <mxCell id="lPqSWDgFiMi_s8-mkcEq-18" value="Sinh Viên" style="rounded=0;whiteSpace=wrap;html=1;fontSize=16;fontStyle=1" vertex="1" parent="1">
          <mxGeometry x="-247" y="3221" width="86" height="41" as="geometry" />
        </mxCell>
        <mxCell id="lPqSWDgFiMi_s8-mkcEq-19" value="Sinh Viên Email" style="rounded=0;whiteSpace=wrap;html=1;fontSize=16;fontStyle=1" vertex="1" parent="1">
          <mxGeometry x="-246" y="3308" width="140" height="41" as="geometry" />
        </mxCell>
        <mxCell id="lPqSWDgFiMi_s8-mkcEq-20" value="&lt;b&gt;Thẻ Nhân Viên&lt;/b&gt;" style="rounded=0;whiteSpace=wrap;html=1;fontSize=16;" vertex="1" parent="1">
          <mxGeometry x="-434" y="4606" width="127" height="41" as="geometry" />
        </mxCell>
        <mxCell id="lPqSWDgFiMi_s8-mkcEq-21" value="&lt;b&gt;Nhân Viên&lt;/b&gt;" style="rounded=0;whiteSpace=wrap;html=1;fontSize=16;" vertex="1" parent="1">
          <mxGeometry x="-436" y="4692" width="107.74" height="41" as="geometry" />
        </mxCell>
      </root>
    </mxGraphModel>
  </diagram>
</mxfile>
