{
  "01-database": "Database là gì?",
  "02-dbms": "DBMS là gì?",
  "03-type-of-db": "Các loại CSDL",
  "04-rdbms": "RDBMS là gì?",
  "06-erd-diagram": "ERD là gì?",
  "10-convert-to-db-schema": "Database Schema",
  "11-sql":"SQL là gì?"
}